<?xml version="1.0" encoding="UTF-8" standalone="no"?>
<!-- Created with Inkscape (http://www.inkscape.org/) -->

<svg
   width="420mm"
   height="297mm"
   viewBox="0 0 420 297"
   version="1.1"
   id="svg8"
   inkscape:version="1.1.2 (0a00cf5339, 2022-02-04)"
   sodipodi:docname="202205_icons.svg"
   xmlns:inkscape="http://www.inkscape.org/namespaces/inkscape"
   xmlns:sodipodi="http://sodipodi.sourceforge.net/DTD/sodipodi-0.dtd"
   xmlns="http://www.w3.org/2000/svg"
   xmlns:svg="http://www.w3.org/2000/svg"
   xmlns:rdf="http://www.w3.org/1999/02/22-rdf-syntax-ns#"
   xmlns:cc="http://creativecommons.org/ns#"
   xmlns:dc="http://purl.org/dc/elements/1.1/">
  <defs
     id="defs2">
    <inkscape:perspective
       sodipodi:type="inkscape:persp3d"
       inkscape:vp_x="0 : 148.5 : 1"
       inkscape:vp_y="0 : 1000 : 0"
       inkscape:vp_z="420 : 148.5 : 1"
       inkscape:persp3d-origin="210 : 99 : 1"
       id="perspective1842" />
    <inkscape:path-effect
       effect="spiro"
       id="path-effect8408"
       is_visible="true"
       lpeversion="0" />
    <inkscape:path-effect
       effect="spiro"
       id="path-effect1052"
       is_visible="true"
       lpeversion="0" />
    <inkscape:path-effect
       effect="spiro"
       id="path-effect1048"
       is_visible="true"
       lpeversion="0" />
    <inkscape:path-effect
       effect="spiro"
       id="path-effect1052-3"
       is_visible="true"
       lpeversion="0" />
    <inkscape:path-effect
       effect="spiro"
       id="path-effect8408-1"
       is_visible="true"
       lpeversion="0" />
    <inkscape:path-effect
       effect="spiro"
       id="path-effect8408-4"
       is_visible="true"
       lpeversion="0" />
    <inkscape:path-effect
       effect="spiro"
       id="path-effect8408-7"
       is_visible="true"
       lpeversion="0" />
  </defs>
  <sodipodi:namedview
     id="base"
     pagecolor="#ffffff"
     bordercolor="#666666"
     borderopacity="1.0"
     inkscape:pageopacity="0.0"
     inkscape:pageshadow="2"
     inkscape:zoom="0.23935987"
     inkscape:cx="1027.7412"
     inkscape:cy="524.31512"
     inkscape:document-units="mm"
     inkscape:current-layer="layer1"
     showgrid="false"
     inkscape:window-width="1866"
     inkscape:window-height="1016"
     inkscape:window-x="0"
     inkscape:window-y="0"
     inkscape:window-maximized="1"
     showguides="true"
     inkscape:guide-bbox="true"
     inkscape:pagecheckerboard="0">
    <inkscape:grid
       type="xygrid"
       id="grid86" />
  </sodipodi:namedview>
  <metadata
     id="metadata5">
    <rdf:RDF>
      <cc:Work
         rdf:about="">
        <dc:format>image/svg+xml</dc:format>
        <dc:type
           rdf:resource="http://purl.org/dc/dcmitype/StillImage" />
      </cc:Work>
    </rdf:RDF>
  </metadata>
  <g
     inkscape:label="Layer 1"
     inkscape:groupmode="layer"
     id="layer1">
    <g
       id="g2019"
       transform="matrix(0.78096171,0,0,1.3569657,29.734383,-46.296155)" />
    <g
       id="g2019-6"
       transform="matrix(0.78096171,0,0,1.3569657,216.93868,-36.135383)" />
    <path
       inkscape:connector-curvature="0"
       id="path889-2"
       style="font-style:normal;font-variant:normal;font-weight:bold;font-stretch:normal;font-size:medium;line-height:1.25;font-family:Syncopate;-inkscape-font-specification:'Syncopate Bold';letter-spacing:0px;word-spacing:0px;fill:#5029c4;fill-opacity:1;stroke:none;stroke-width:0.306344"
       d="m 26.448012,67.732225 h -4.5832 l -0.771839,1.555649 h -2.477081 l 4.301981,-8.22103 h 2.47708 l 4.30199,8.22103 h -2.47708 z m -3.787419,-1.603531 h 3.00361 l -1.49582,-3.02754 z" />
    <path
       inkscape:connector-curvature="0"
       id="path891-7"
       style="font-style:normal;font-variant:normal;font-weight:bold;font-stretch:normal;font-size:medium;line-height:1.25;font-family:Syncopate;-inkscape-font-specification:'Syncopate Bold';letter-spacing:0px;word-spacing:0px;fill:#e42e1c;fill-opacity:1;stroke:none;stroke-width:0.306344"
       d="m 33.179213,61.066844 v 4.63106 q 0,0.460711 0.0778,0.837661 0.0778,0.370959 0.2872,0.640209 0.20941,0.263261 0.58636,0.412851 0.37694,0.1436 0.98126,0.1436 0.45473,0 0.95134,-0.125651 0.5026,-0.125651 0.99323,-0.335068 0.49063,-0.209413 0.93339,-0.478661 0.44875,-0.27523 0.80176,-0.568409 v -5.157592 h 2.21381 v 8.22103 h -2.21381 v -1.12486 q -0.41883,0.239339 -0.89151,0.484651 -0.47268,0.239328 -1.00519,0.436779 -0.53252,0.19146 -1.13084,0.311131 -0.59833,0.125648 -1.26248,0.125648 -0.83168,0 -1.48984,-0.203427 -0.65816,-0.197451 -1.11289,-0.56243 -0.45473,-0.370962 -0.70004,-0.891511 -0.23934,-0.526531 -0.23934,-1.172731 v -5.62428 z" />
    <path
       inkscape:connector-curvature="0"
       id="path893-4"
       style="font-style:normal;font-variant:normal;font-weight:bold;font-stretch:normal;font-size:medium;line-height:1.25;font-family:Syncopate;-inkscape-font-specification:'Syncopate Bold';letter-spacing:0px;word-spacing:0px;fill:#ffb600;fill-opacity:1;stroke:none;stroke-width:0.306344"
       d="m 45.803943,69.287874 h -2.21979 v -8.22103 h 5.564451 q 0.897488,0 1.519748,0.185481 0.628251,0.185481 1.017162,0.526521 0.394898,0.341058 0.56841,0.825698 0.179498,0.478661 0.179498,1.07101 0,0.520541 -0.149579,0.90946 -0.1436,0.388911 -0.394899,0.670131 -0.245311,0.27523 -0.574392,0.466691 -0.329078,0.191468 -0.69406,0.317119 l 2.692482,3.248919 h -2.596751 l -2.489041,-3.02754 h -2.423239 z m 4.385749,-5.62429 q 0,-0.239329 -0.0658,-0.40686 -0.0598,-0.167529 -0.2154,-0.269248 -0.155559,-0.107702 -0.41883,-0.155573 -0.257281,-0.0479 -0.646189,-0.0479 h -3.03951 v 1.759087 h 3.03951 q 0.388908,0 0.646189,-0.0479 0.263271,-0.0479 0.41883,-0.149582 0.15557,-0.107699 0.2154,-0.275231 0.0658,-0.167528 0.0658,-0.406857 z" />
    <path
       inkscape:connector-curvature="0"
       id="path895-0"
       style="font-style:normal;font-variant:normal;font-weight:bold;font-stretch:normal;font-size:medium;line-height:1.25;font-family:Syncopate;-inkscape-font-specification:'Syncopate Bold';letter-spacing:0px;word-spacing:0px;fill:#25bf86;fill-opacity:1;stroke:none;stroke-width:0.306344"
       d="m 61.875052,69.287874 v -0.807738 q -0.42481,0.233349 -0.915448,0.41284 -0.48464,0.179498 -1.011171,0.305149 -0.526529,0.12565 -1.088959,0.185481 -0.55644,0.0658 -1.12486,0.0658 -0.664141,0 -1.28641,-0.125651 -0.61627,-0.12565 -1.094941,-0.406871 -0.47866,-0.281209 -0.77184,-0.735938 -0.287199,-0.454732 -0.287199,-1.112891 0,-0.83167 0.454728,-1.382141 0.454732,-0.55644 1.388121,-0.909457 0.9334,-0.353013 2.357419,-0.544481 1.430012,-0.19146 3.38056,-0.299162 v -0.173508 q 0,-0.203441 -0.107699,-0.400891 -0.107701,-0.203431 -0.394901,-0.35301 -0.281218,-0.15557 -0.77783,-0.251299 -0.490619,-0.0957 -1.256488,-0.0957 -0.604311,0 -1.19666,0.0658 -0.586361,0.0598 -1.136822,0.167528 -0.544478,0.107702 -1.0351,0.251291 -0.49063,0.143611 -0.891519,0.29917 v -1.97449 q 0.418841,-0.107688 0.939379,-0.20941 0.520552,-0.101719 1.082982,-0.173509 0.56242,-0.0778 1.13682,-0.119671 0.574389,-0.0479 1.10092,-0.0479 1.035109,0 1.90867,0.173519 0.873559,0.167532 1.501799,0.526532 0.634241,0.358989 0.98725,0.90946 0.35899,0.55046 0.35899,1.310338 v 5.450772 z m 0,-3.751519 q -1.28043,0.0479 -2.177918,0.13762 -0.891511,0.0898 -1.483852,0.20941 -0.592349,0.119669 -0.9334,0.257278 -0.33506,0.137621 -0.502589,0.281213 -0.167529,0.143608 -0.20942,0.2872 -0.0359,0.1436 -0.0359,0.263268 0,0.1436 0.0778,0.28121 0.0778,0.131641 0.269251,0.233352 0.19745,0.101719 0.520549,0.161549 0.323091,0.0598 0.813721,0.0598 0.54448,0 1.06503,-0.0838 0.520552,-0.0838 0.987239,-0.22737 0.466702,-0.14958 0.873562,-0.34703 0.412848,-0.20343 0.735939,-0.4308 z" />
    <circle
       style="opacity:1;fill:#ffffff;fill-opacity:1;stroke:none;stroke-width:0.510483;stroke-miterlimit:4;stroke-dasharray:none;stroke-dashoffset:0;stroke-opacity:1"
       id="path1617-9-9-0-1-6-6-3"
       cx="41.3554"
       cy="33.114864"
       r="23.539951" />
    <path
       inkscape:connector-curvature="0"
       id="circle1631-0-7-1-7-6-3-2"
       style="color:#000000;font-style:normal;font-variant:normal;font-weight:normal;font-stretch:normal;font-size:medium;line-height:normal;font-family:sans-serif;font-variant-ligatures:normal;font-variant-position:normal;font-variant-caps:normal;font-variant-numeric:normal;font-variant-alternates:normal;font-feature-settings:normal;text-indent:0;text-align:start;text-decoration:none;text-decoration-line:none;text-decoration-style:solid;text-decoration-color:#000000;letter-spacing:normal;word-spacing:normal;text-transform:none;writing-mode:lr-tb;direction:ltr;text-orientation:mixed;dominant-baseline:auto;baseline-shift:baseline;text-anchor:start;white-space:normal;shape-padding:0;clip-rule:nonzero;display:inline;overflow:visible;visibility:visible;opacity:1;isolation:auto;mix-blend-mode:normal;color-interpolation:sRGB;color-interpolation-filters:linearRGB;solid-color:#000000;solid-opacity:1;vector-effect:none;fill:#000000;fill-opacity:1;fill-rule:nonzero;stroke:none;stroke-width:4.23649;stroke-linecap:butt;stroke-linejoin:miter;stroke-miterlimit:4;stroke-dasharray:none;stroke-dashoffset:0;stroke-opacity:1;color-rendering:auto;image-rendering:auto;shape-rendering:auto;text-rendering:auto;enable-background:accumulate"
       d="m 41.354923,11.879024 c -11.70322,0 -21.235381,9.53215 -21.235381,21.23538 0,11.703229 9.532161,21.23631 21.235381,21.23631 11.70321,0 21.23634,-9.533081 21.23634,-21.23631 0,-11.70323 -9.53313,-21.23538 -21.23634,-21.23538 z m 0,4.23612 c 9.413651,0 17.0002,7.58559 17.0002,16.99926 0,9.413649 -7.586549,17.00019 -17.0002,17.00019 -9.41365,0 -16.999241,-7.586541 -16.999241,-17.00019 0,-9.41367 7.585591,-16.99926 16.999241,-16.99926 z m 0,1.08904 c -8.77408,0 -15.910221,7.13611 -15.910221,15.91022 0,8.774069 7.136141,15.9112 15.910221,15.9112 8.774079,0 15.91118,-7.137131 15.91118,-15.9112 0,-8.77411 -7.137101,-15.91022 -15.91118,-15.91022 z m 0,2.23753 c 7.564581,0 13.67366,6.10809 13.67366,13.67269 0,7.564611 -6.109079,13.6727 -13.67366,13.6727 -7.56458,0 -13.6727,-6.108089 -13.6727,-13.6727 0,-7.5646 6.10812,-13.67269 13.6727,-13.67269 z" />
    <path
       inkscape:connector-curvature="0"
       id="circle1631-0-7-1-7-6-3-2-2"
       style="color:#000000;font-style:normal;font-variant:normal;font-weight:normal;font-stretch:normal;font-size:medium;line-height:normal;font-family:sans-serif;font-variant-ligatures:normal;font-variant-position:normal;font-variant-caps:normal;font-variant-numeric:normal;font-variant-alternates:normal;font-feature-settings:normal;text-indent:0;text-align:start;text-decoration:none;text-decoration-line:none;text-decoration-style:solid;text-decoration-color:#000000;letter-spacing:normal;word-spacing:normal;text-transform:none;writing-mode:lr-tb;direction:ltr;text-orientation:mixed;dominant-baseline:auto;baseline-shift:baseline;text-anchor:start;white-space:normal;shape-padding:0;clip-rule:nonzero;display:inline;overflow:visible;visibility:visible;opacity:1;isolation:auto;mix-blend-mode:normal;color-interpolation:sRGB;color-interpolation-filters:linearRGB;solid-color:#000000;solid-opacity:1;vector-effect:none;fill:#000000;fill-opacity:1;fill-rule:nonzero;stroke:none;stroke-width:4.23649;stroke-linecap:butt;stroke-linejoin:miter;stroke-miterlimit:4;stroke-dasharray:none;stroke-dashoffset:0;stroke-opacity:1;color-rendering:auto;image-rendering:auto;shape-rendering:auto;text-rendering:auto;enable-background:accumulate"
       d="m 130.67053,11.879024 c -11.70322,0 -21.23538,9.53215 -21.23538,21.23538 0,11.70323 9.53216,21.23631 21.23538,21.23631 11.70321,0 21.23634,-9.53308 21.23634,-21.23631 0,-11.70323 -9.53313,-21.23538 -21.23634,-21.23538 z m 0,4.23612 c 9.41365,0 17.0002,7.58559 17.0002,16.99926 0,9.41365 -7.58655,17.00019 -17.0002,17.00019 -9.41365,0 -16.99924,-7.58654 -16.99924,-17.00019 0,-9.41367 7.58559,-16.99926 16.99924,-16.99926 z m 0,1.08904 c -8.77408,0 -15.91022,7.13611 -15.91022,15.91022 0,8.77407 7.13614,15.9112 15.91022,15.9112 8.77408,0 15.91118,-7.13713 15.91118,-15.9112 0,-8.77411 -7.1371,-15.91022 -15.91118,-15.91022 z m 0,2.23753 c 7.56458,0 13.67366,6.10809 13.67366,13.67269 0,7.56461 -6.10908,13.6727 -13.67366,13.6727 -7.56458,0 -13.6727,-6.10809 -13.6727,-13.6727 0,-7.5646 6.10812,-13.67269 13.6727,-13.67269 z" />
    <g
       id="g1780"
       transform="translate(283.3478,-61.680919)">
      <rect
         y="142.21617"
         x="19.759706"
         height="40.91222"
         width="40.91222"
         id="rect1774"
         style="fill:#e42e1c;fill-opacity:1;stroke:none;stroke-width:0.0891928;stroke-miterlimit:4;stroke-dasharray:none;stroke-opacity:1" />
      <circle
         r="17.652599"
         cy="162.67229"
         cx="40.215828"
         id="circle1776"
         style="fill:#ffffff;fill-opacity:1;stroke:none;stroke-width:1.5;stroke-miterlimit:4;stroke-dasharray:none;stroke-opacity:1" />
      <path
         sodipodi:nodetypes="cccccccccccccccssssssssccssccssccscccccscccccccccccccscccccsssssssss"
         inkscape:connector-curvature="0"
         id="path1778"
         d="m 38.092141,152.02339 c -0.42961,-0.004 -0.5639,0.0281 -0.8547,0.78699 l -0.89813,2.06668 c -0.17127,0.31589 -0.41129,0.49371 -0.54886,0.57135 l -0.9841,-1.8546 c 0.0717,-0.1412 0.0801,-0.31247 0.005,-0.46643 l -0.0873,-0.1811 c -0.0874,-0.17905 -0.26168,-0.2862 -0.44707,-0.29403 -0.0843,-0.003 -0.17143,0.0146 -0.25282,0.0544 l -1.82455,0.88945 c -0.26045,0.12723 -0.36712,0.43945 -0.2399,0.69988 l 0.0894,0.18088 c 0.069,0.14127 0.19242,0.23515 0.3319,0.27308 l 0.56713,1.06903 -0.51768,0.0642 c -0.52451,0.26417 -0.62326,0.37088 -0.62326,1.02021 v 15.86875 c 0,0.30463 0.24247,0.54931 0.54485,0.54931 h 15.7251 c 0.30238,0 0.5473,-0.24468 0.5473,-0.54931 v -18.35476 c 0,-1.59697 -0.73744,-2.39145 -2.37631,-2.39145 h -7.95059 c -0.0747,0 -0.14379,-0.002 -0.20516,-0.002 z m 0.31164,1.08569 h 5.64851 c 0.19568,0 0.30149,0.14846 0.23766,0.33344 l -0.49919,1.44967 c -0.0638,0.18501 -0.27319,0.33368 -0.46888,0.33368 h -5.64852 c -0.19569,0 -0.30127,-0.14868 -0.23745,-0.33368 l 0.49918,-1.44967 c 0.0638,-0.18498 0.27299,-0.33344 0.46869,-0.33344 z m -4.28017,4.99519 c 0.0833,0 0.16517,0.0318 0.22899,0.0955 l 1.88001,1.87759 h 7.9658 l 1.88001,-1.87759 c 0.0638,-0.0638 0.14842,-0.0955 0.23167,-0.0955 0.0832,0 0.16517,0.0318 0.22899,0.0955 0.12758,0.1276 0.12758,0.3333 0,0.46088 l -1.84995,1.84705 v 8.1999 l 1.84995,1.84973 c 0.12758,0.12758 0.12758,0.33306 0,0.46064 -0.1276,0.1276 -0.33307,0.1276 -0.46066,0 l -1.96555,-1.96554 h -7.79473 l -1.96554,1.96554 c -0.12759,0.1276 -0.33306,0.1276 -0.46065,0 -0.12759,-0.12758 -0.12759,-0.33306 0,-0.46064 l 1.82455,-1.82211 c -1.8e-4,-0.005 -0.002,-0.009 -0.002,-0.0128 v -8.24223 l -1.82232,-1.81964 c -0.1276,-0.1276 -0.1276,-0.33307 0,-0.46066 0.0638,-0.0638 0.1484,-0.0956 0.23166,-0.0956 z m 2.50661,2.60753 c -0.157,0 -0.282,0.12476 -0.282,0.28176 v 7.14296 c 0,0.15699 0.125,0.28424 0.282,0.28424 h 7.14273 c 0.157,0 0.28201,-0.12725 0.28201,-0.28424 v -7.14296 c 0,-0.157 -0.12501,-0.28176 -0.28201,-0.28176 z"
         style="fill:#000000;fill-rule:evenodd;stroke-width:0.0697615" />
    </g>
    <g
       id="g1788"
       transform="translate(286.67166,-60.97019)">
      <rect
         y="193.98099"
         x="16.435841"
         height="40.91222"
         width="40.91222"
         id="rect1782"
         style="fill:#ffb600;fill-opacity:1;stroke:none;stroke-width:0.0891928;stroke-miterlimit:4;stroke-dasharray:none;stroke-opacity:1" />
      <circle
         r="17.652599"
         cy="214.4371"
         cx="36.89196"
         id="circle1784"
         style="fill:#ffffff;fill-opacity:1;stroke:none;stroke-width:1.5;stroke-miterlimit:4;stroke-dasharray:none;stroke-opacity:1" />
      <path
         inkscape:connector-curvature="0"
         id="path1786"
         d="m 36.891819,201.19863 c -7.297344,0 -13.238381,5.94095 -13.238381,13.23828 0,7.29733 5.941037,13.23866 13.238381,13.23866 7.297317,0 13.238664,-5.94133 13.238664,-13.23866 0,-7.29733 -5.941347,-13.23828 -13.238664,-13.23828 z m 0,2.3822 c 4.873953,0 8.982409,3.18766 10.361374,7.59827 -2.131694,0.3606 -7.420157,1.20243 -10.416671,1.20461 -2.994258,0.003 -8.209324,-0.8224 -10.314999,-1.17682 1.370335,-4.42504 5.486061,-7.62607 10.370296,-7.62606 z m 1.83e-4,9.55753 a 1.298761,1.298761 0 0 1 1.298746,1.29874 1.298761,1.298761 0 0 1 -1.298746,1.29884 1.298761,1.298761 0 0 1 -1.298746,-1.29884 1.298761,1.298761 0 0 1 1.298746,-1.29874 z m 10.813665,0.34052 c 0.02749,0.31568 0.04228,0.63505 0.04228,0.95803 0,5.4036 -3.918,9.86652 -9.076875,10.71189 -0.370967,0.0439 -0.671176,-0.044 -0.654692,-0.4616 v -6.61759 c 0,0 -0.03781,-1.15265 0.378191,-1.69476 0.415981,-0.54211 1.603329,-0.83067 1.603329,-0.83067 z m -21.630234,0.0289 7.551307,2.03644 c 0,0 1.176134,0.27786 1.600334,0.83068 0.424191,0.55282 0.540218,1.69476 0.540218,1.69476 v 6.61758 c -0.0018,0.43735 -0.323442,0.48936 -0.689843,0.42826 -5.141505,-0.85909 -9.041724,-5.28724 -9.041724,-10.67855 0,-0.31313 0.01397,-0.62287 0.03973,-0.92917 z"
         style="color:#000000;font-style:normal;font-variant:normal;font-weight:normal;font-stretch:normal;font-size:medium;line-height:normal;font-family:sans-serif;font-variant-ligatures:normal;font-variant-position:normal;font-variant-caps:normal;font-variant-numeric:normal;font-variant-alternates:normal;font-feature-settings:normal;text-indent:0;text-align:start;text-decoration:none;text-decoration-line:none;text-decoration-style:solid;text-decoration-color:#000000;letter-spacing:normal;word-spacing:normal;text-transform:none;writing-mode:lr-tb;direction:ltr;text-orientation:mixed;dominant-baseline:auto;baseline-shift:baseline;text-anchor:start;white-space:normal;shape-padding:0;clip-rule:nonzero;display:inline;overflow:visible;visibility:visible;isolation:auto;mix-blend-mode:normal;color-interpolation:sRGB;color-interpolation-filters:linearRGB;solid-color:#000000;solid-opacity:1;vector-effect:none;fill:#000000;fill-opacity:1;fill-rule:nonzero;stroke:none;stroke-width:2.24897;stroke-linecap:butt;stroke-linejoin:miter;stroke-miterlimit:4;stroke-dasharray:none;stroke-dashoffset:0;stroke-opacity:1;color-rendering:auto;image-rendering:auto;shape-rendering:auto;text-rendering:auto;enable-background:accumulate" />
    </g>
    <g
       id="g1796"
       transform="translate(286.67166,-56.286061)">
      <rect
         y="241.77238"
         x="16.435841"
         height="40.91222"
         width="40.91222"
         id="rect1790"
         style="fill:#25bf86;fill-opacity:1;stroke:#25bf86;stroke-width:0.0891928;stroke-miterlimit:4;stroke-dasharray:none;stroke-opacity:1" />
      <circle
         r="17.652599"
         cy="262.22849"
         cx="36.891956"
         id="circle1792"
         style="fill:#ffffff;fill-opacity:1;stroke:#25bf86;stroke-width:1.5;stroke-miterlimit:4;stroke-dasharray:none;stroke-opacity:1" />
      <path
         inkscape:connector-curvature="0"
         id="path1794"
         d="m 33.162602,249.21167 c -1.187135,0 -2.142921,0.95579 -2.142921,2.14293 v 7.49172 h -0.351964 c -0.966701,0 -1.745191,0.77802 -1.745191,1.74472 v 11.91534 c 0,0.96671 0.77849,1.74519 1.745191,1.74519 h 12.44894 c 0.966703,0 1.744719,-0.77848 1.744719,-1.74519 v -11.91534 c 0,-0.9667 -0.778016,-1.74472 -1.744719,-1.74472 h -0.352436 v -7.49172 c 0,-1.18714 -0.955313,-2.14293 -2.142448,-2.14293 z m 0.925674,2.54773 H 39.6961 v 10.41783 a 5.7198358,5.7198358 0 0 1 2.915729,4.98176 5.7198358,5.7198358 0 0 1 -5.719642,5.71964 5.7198358,5.7198358 0 0 1 -5.720114,-5.71964 5.7198358,5.7198358 0 0 1 2.916203,-4.97799 z m 2.879871,1.93014 c -0.693802,-0.007 -1.412805,0.0713 -2.163679,0.25619 v 4.84918 H 36.3298 c 0.146945,0.63437 0.655121,2.82695 1.146478,4.8619 -0.202671,-0.0349 -0.409666,-0.0566 -0.622306,-0.0566 -2.014595,8e-5 -3.647983,1.63291 -3.647966,3.64749 -7e-6,2.01461 1.63338,3.6479 3.647966,3.64797 2.01465,3e-5 3.64752,-1.63329 3.647493,-3.64797 1.8e-5,-1.35091 -0.735995,-2.52727 -1.827286,-3.15775 -0.488361,-1.99581 -1.059714,-4.45092 -1.255461,-5.29502 h 1.560715 v -4.84917 c -0.649178,-0.15697 -1.317483,-0.24922 -2.011286,-0.2562 z m -0.114648,12.40788 c 0.632528,0 1.150251,0.51772 1.150251,1.15025 0,0.63253 -0.517723,1.15027 -1.150251,1.15027 -0.632519,0 -1.149777,-0.51774 -1.149777,-1.15027 0,-0.63253 0.517258,-1.15025 1.149777,-1.15025 z m 0,0.519 c -0.352258,0 -0.63127,0.279 -0.63127,0.63125 0,0.35227 0.279012,0.63316 0.63127,0.63316 0.35227,0 0.633158,-0.28089 0.633158,-0.63316 0,-0.35225 -0.280888,-0.63125 -0.633158,-0.63125 z"
         style="fill:#000000;fill-opacity:1;stroke:none;stroke-width:1.43165;stroke-miterlimit:4;stroke-dasharray:none;stroke-opacity:1" />
    </g>
    <g
       id="g1812"
       transform="translate(283.3478,-60.346779)">
      <rect
         y="88.406494"
         x="19.759706"
         height="40.91222"
         width="40.91222"
         id="rect1798"
         style="fill:#5029c4;fill-opacity:1;stroke:none;stroke-width:0.0891928;stroke-miterlimit:4;stroke-dasharray:none;stroke-opacity:1" />
      <circle
         r="17.652599"
         cy="108.8626"
         cx="40.21582"
         id="circle1800"
         style="fill:#ffffff;fill-opacity:1;stroke:none;stroke-width:1.5;stroke-miterlimit:4;stroke-dasharray:none;stroke-opacity:1" />
      <g
         style="fill:#000000;fill-opacity:1"
         transform="matrix(0.94077569,0,0,0.94077569,-78.739344,-17.58568)"
         id="g1808">
        <circle
           style="opacity:1;fill:#000000;fill-opacity:1;stroke:none;stroke-width:1.5;stroke-miterlimit:4;stroke-dasharray:none;stroke-opacity:1"
           id="circle1802"
           cx="121.85251"
           cy="146.77315"
           r="1.2408606" />
        <circle
           style="opacity:1;fill:#000000;fill-opacity:1;stroke:none;stroke-width:1.5;stroke-miterlimit:4;stroke-dasharray:none;stroke-opacity:1"
           id="circle1804"
           cx="126.4437"
           cy="146.77315"
           r="1.2408607" />
        <circle
           style="opacity:1;fill:#000000;fill-opacity:1;stroke:none;stroke-width:1.5;stroke-miterlimit:4;stroke-dasharray:none;stroke-opacity:1"
           id="circle1806"
           cx="131.03488"
           cy="146.77315"
           r="1.2408607" />
      </g>
      <path
         sodipodi:nodetypes="cscccccccccccccccccccccccccccccccccccccccccccccccccccccccccccccccccssccccccccccccccccccccccccccccccccccccc"
         inkscape:connector-curvature="0"
         id="path1810"
         d="m 40.215145,94.916778 c -7.802889,0 -14.144799,6.342942 -14.144797,14.145812 0,1.31289 0.180193,2.58429 0.516027,3.79127 l 0.134087,0.26254 3.620152,-0.94721 c -0.08856,-0.28306 -0.164929,-0.56978 -0.228897,-0.85937 l -2.112244,0.56618 c -0.174961,-0.76515 -0.280099,-1.55689 -0.308337,-2.36875 h 2.176537 c -0.0085,-0.14809 -0.01374,-0.29634 -0.01581,-0.44466 0.0042,-0.14836 0.01162,-0.29661 0.02221,-0.44465 h -2.182935 c 0.02826,-0.81193 0.133675,-1.60357 0.308675,-2.36875 l 2.107195,0.56449 c 0.06249,-0.28975 0.137415,-0.57671 0.224521,-0.86004 l -2.105513,-0.56416 c 0.23505,-0.77024 0.542931,-1.50815 0.914241,-2.20718 l 1.892773,1.09265 c 0.138157,-0.26256 0.287526,-0.51907 0.447694,-0.76882 l -1.894793,-1.09399 c 0.424639,-0.67809 0.912168,-1.31232 1.45484,-1.89481 l 1.547408,1.54742 c 0.200023,-0.21916 0.409364,-0.42962 0.627447,-0.63081 l -1.545725,-1.545722 c 0.582735,-0.54292 1.21705,-1.03041 1.895465,-1.455187 l 1.089279,1.886719 c 0.250498,-0.15851 0.507682,-0.3062 0.770841,-0.442652 l -1.09096,-1.889054 c 0.699582,-0.371645 1.437948,-0.67945 2.208851,-0.914584 l 0.566184,2.113588 c 0.283055,-0.0885 0.569776,-0.1647 0.859372,-0.22856 l -0.565847,-2.11157 c 0.765273,-0.174928 1.556751,-0.280184 2.368745,-0.308341 v 2.175871 c 0.147866,-0.008 0.295898,-0.0138 0.443991,-0.0158 0.14814,0.005 0.29617,0.0119 0.443992,0.0223 v -2.182263 c 0.811868,0.02823 1.603224,0.133375 2.368406,0.308332 l -0.564499,2.106531 c 0.289874,0.0626 0.576931,0.1374 0.860382,0.22452 l 0.563825,-2.104169 c 0.770829,0.235185 1.509312,0.542949 2.208852,0.914569 l -1.092308,1.89178 c 0.262215,0.138072 0.51839,0.287322 0.767814,0.447352 l 1.093654,-1.894127 c 0.678384,0.424765 1.312739,0.912315 1.895465,1.455185 l -1.547073,1.547072 c 0.219049,0.20015 0.4294,0.40958 0.630474,0.62778 l 1.545728,-1.54574 c 0.542515,0.58229 1.029935,1.21632 1.454503,1.89412 l -1.886378,1.08929 c 0.158653,0.25093 0.306451,0.50856 0.442983,0.77219 l 1.889742,-1.09097 c 0.371292,0.69888 0.678836,1.43679 0.913903,2.20684 l -2.114262,0.56652 c 0.08855,0.28304 0.164927,0.56977 0.228896,0.85937 l 2.111908,-0.56585 c 0.175033,0.76521 0.280412,1.55682 0.308672,2.36875 h -2.176536 c 0.0085,0.14809 0.01374,0.29634 0.01582,0.44466 -0.0042,0.14837 -0.01162,0.29662 -0.02221,0.44466 h 2.182932 c -0.02824,0.81188 -0.133339,1.6036 -0.308336,2.36875 l -2.107533,-0.56484 c -0.06249,0.28988 -0.137405,0.57693 -0.22452,0.86038 l 3.651117,0.95495 0.09403,-0.27262 c 0.335896,-1.20699 0.516028,-2.47839 0.516028,-3.79128 0,-7.80289 -6.343256,-14.145814 -14.146146,-14.145814 z m -8.675315,6.679502 c 0,0 5.769864,6.57039 6.636734,7.59342 l 1.703551,1.83048 1.083619,-1.08362 c -0.726108,-0.7105 -0.511909,-0.41786 -1.610007,-1.51595 -1.216229,-1.14172 -7.813897,-6.82433 -7.813897,-6.82433 z m 3.898109,11.87901 v 2.59899 h 1.124959 v -2.59899 z m 1.686093,0 v 2.59899 h 1.12496 v -2.59899 z m 1.686093,0 v 2.59899 h 1.124959 v -2.59899 z m 1.686092,0 v 2.59899 h 1.124959 v -2.59899 z m 1.686093,0 v 2.59899 h 1.124959 v -2.59899 z m 1.686093,0 v 2.59899 h 1.124959 v -2.59899 z"
         style="color:#000000;font-style:normal;font-variant:normal;font-weight:normal;font-stretch:normal;font-size:medium;line-height:normal;font-family:sans-serif;font-variant-ligatures:normal;font-variant-position:normal;font-variant-caps:normal;font-variant-numeric:normal;font-variant-alternates:normal;font-feature-settings:normal;text-indent:0;text-align:start;text-decoration:none;text-decoration-line:none;text-decoration-style:solid;text-decoration-color:#000000;letter-spacing:normal;word-spacing:normal;text-transform:none;writing-mode:lr-tb;direction:ltr;text-orientation:mixed;dominant-baseline:auto;baseline-shift:baseline;text-anchor:start;white-space:normal;shape-padding:0;clip-rule:nonzero;display:inline;overflow:visible;visibility:visible;isolation:auto;mix-blend-mode:normal;color-interpolation:sRGB;color-interpolation-filters:linearRGB;solid-color:#000000;solid-opacity:1;vector-effect:none;fill:#000000;fill-opacity:0.951807;fill-rule:nonzero;stroke:none;stroke-width:1.61022;stroke-linecap:butt;stroke-linejoin:miter;stroke-miterlimit:4;stroke-dasharray:none;stroke-dashoffset:0;stroke-opacity:1;color-rendering:auto;image-rendering:auto;shape-rendering:auto;text-rendering:auto;enable-background:accumulate" />
    </g>
    <g
       id="g3945"
       transform="translate(-61.896253,-5.2148767)">
      <rect
         y="243.17674"
         x="365.00375"
         height="40.91222"
         width="40.91222"
         id="rect1790-7"
         style="fill:#2596bf;fill-opacity:1;stroke:none;stroke-width:0.0891928;stroke-miterlimit:4;stroke-dasharray:none;stroke-opacity:1" />
      <circle
         r="17.652599"
         cy="263.63284"
         cx="385.45987"
         id="circle1792-2"
         style="fill:#ffffff;fill-opacity:1;stroke:none;stroke-width:1.5;stroke-miterlimit:4;stroke-dasharray:none;stroke-opacity:1" />
      <g
         id="g3934"
         transform="matrix(0.84842998,0,0,0.84842998,112.38092,84.078691)">
        <path
           style="fill:#000000;fill-opacity:1;stroke:#ffffff;stroke-width:1.44171;stroke-linecap:butt;stroke-linejoin:miter;stroke-miterlimit:4;stroke-dasharray:none;stroke-opacity:1"
           d="m 309.33005,204.36457 12.53381,-7.23639 12.53381,7.23639 v 14.4728 l -12.53381,7.2364 -12.53381,-7.2364 z"
           id="path2157-6"
           sodipodi:nodetypes="ccccccc" />
        <path
           style="fill:none;stroke:#ffffff;stroke-width:1.44171;stroke-linecap:butt;stroke-linejoin:miter;stroke-miterlimit:4;stroke-dasharray:none;stroke-opacity:1"
           d="m 309.33005,204.36457 12.52069,7.2364 12.54693,-7.2364"
           id="path2364-2" />
        <path
           style="fill:none;stroke:#ffffff;stroke-width:1.44171;stroke-linecap:butt;stroke-linejoin:miter;stroke-miterlimit:4;stroke-dasharray:none;stroke-opacity:1"
           d="m 321.85074,211.60097 0.0131,14.4728"
           id="path2366-6" />
        <path
           style="fill:#ffffff;fill-opacity:0.931768;stroke:none;stroke-width:0.264583px;stroke-linecap:butt;stroke-linejoin:miter;stroke-opacity:1"
           d="m 313.91529,211.76694 v 4.78355 l 2.68074,-0.98367 z"
           id="path2659-7"
           sodipodi:nodetypes="cccc" />
        <ellipse
           style="fill:#ffffff;fill-opacity:0.931768;stroke:none;stroke-width:1.37989;stroke-miterlimit:4;stroke-dasharray:none"
           id="path2716-5"
           cx="392.8175"
           cy="-0.95969868"
           rx="1.4037459"
           ry="1.9312021"
           transform="rotate(33.414139)" />
        <rect
           style="fill:#ffffff;fill-opacity:1;stroke:none;stroke-width:1.16121;stroke-miterlimit:4;stroke-dasharray:none"
           id="rect2740-6"
           width="2.8187675"
           height="2.8357718"
           x="20.918037"
           y="-393.96295"
           transform="matrix(-0.88089981,0.47330278,-0.87007019,-0.49292785,0,0)"
           inkscape:transform-center-x="0.013224043"
           inkscape:transform-center-y="-1.3406219" />
      </g>
    </g>
    <circle
       r="17.652599"
       cy="100.99138"
       cx="392.08847"
       id="circle3949"
       style="fill:#ffffff;fill-opacity:1;stroke:#e42e1c;stroke-width:3;stroke-miterlimit:4;stroke-dasharray:none;stroke-opacity:1" />
    <path
       sodipodi:nodetypes="cccccccccccccccssssssssccssccssccscccccscccccccccccccscccccsssssssss"
       inkscape:connector-curvature="0"
       id="path3951"
       d="m 389.96479,90.342471 c -0.42961,-0.004 -0.5639,0.0281 -0.8547,0.78699 l -0.89813,2.06668 c -0.17127,0.31589 -0.41129,0.49371 -0.54886,0.57135 l -0.9841,-1.8546 c 0.0717,-0.1412 0.0801,-0.31247 0.005,-0.46643 l -0.0873,-0.1811 c -0.0874,-0.17905 -0.26168,-0.2862 -0.44707,-0.29403 -0.0843,-0.003 -0.17143,0.0146 -0.25282,0.0544 l -1.82455,0.88945 c -0.26045,0.12723 -0.36712,0.43945 -0.2399,0.69988 l 0.0894,0.18088 c 0.069,0.14127 0.19242,0.23515 0.3319,0.27308 l 0.56713,1.06903 -0.51768,0.0642 c -0.52451,0.26417 -0.62326,0.37088 -0.62326,1.020212 v 15.868747 c 0,0.30463 0.24247,0.54931 0.54485,0.54931 h 15.7251 c 0.30238,0 0.5473,-0.24468 0.5473,-0.54931 V 92.736451 c 0,-1.59697 -0.73744,-2.39145 -2.37631,-2.39145 h -7.95059 c -0.0747,0 -0.14379,-0.002 -0.20516,-0.002 z m 0.31164,1.08569 h 5.64851 c 0.19568,0 0.30149,0.14846 0.23766,0.33344 l -0.49919,1.44967 c -0.0638,0.18501 -0.27319,0.33368 -0.46888,0.33368 h -5.64852 c -0.19569,0 -0.30127,-0.14868 -0.23745,-0.33368 l 0.49918,-1.44967 c 0.0638,-0.18498 0.27299,-0.33344 0.46869,-0.33344 z m -4.28017,4.995192 c 0.0833,0 0.16517,0.0318 0.22899,0.0955 l 1.88001,1.87759 h 7.9658 l 1.88001,-1.87759 c 0.0638,-0.0638 0.14842,-0.0955 0.23167,-0.0955 0.0832,0 0.16517,0.0318 0.22899,0.0955 0.12758,0.1276 0.12758,0.3333 0,0.46088 l -1.84995,1.84705 v 8.199897 l 1.84995,1.84973 c 0.12758,0.12758 0.12758,0.33306 0,0.46064 -0.1276,0.1276 -0.33307,0.1276 -0.46066,0 l -1.96555,-1.96554 h -7.79473 l -1.96554,1.96554 c -0.12759,0.1276 -0.33306,0.1276 -0.46065,0 -0.12759,-0.12758 -0.12759,-0.33306 0,-0.46064 l 1.82455,-1.82211 c -1.8e-4,-0.005 -0.002,-0.009 -0.002,-0.0128 v -8.242227 l -1.82232,-1.81964 c -0.1276,-0.1276 -0.1276,-0.33307 0,-0.46066 0.0638,-0.0638 0.1484,-0.0956 0.23166,-0.0956 z m 2.50661,2.60753 c -0.157,0 -0.282,0.12476 -0.282,0.28176 v 7.142957 c 0,0.15699 0.125,0.28424 0.282,0.28424 h 7.14273 c 0.157,0 0.28201,-0.12725 0.28201,-0.28424 v -7.142957 c 0,-0.157 -0.12501,-0.28176 -0.28201,-0.28176 z"
       style="fill:#000000;fill-rule:evenodd;stroke-width:0.0697615" />
    <circle
       r="17.652599"
       cy="153.46692"
       cx="392.08847"
       id="circle3957"
       style="fill:#ffffff;fill-opacity:1;stroke:#ffb600;stroke-width:3;stroke-miterlimit:4;stroke-dasharray:none;stroke-opacity:1" />
    <path
       inkscape:connector-curvature="0"
       id="path3959"
       d="m 392.08833,140.22844 c -7.29735,0 -13.23838,5.94095 -13.23838,13.23828 0,7.29733 5.94103,13.23866 13.23838,13.23866 7.29732,0 13.23866,-5.94133 13.23866,-13.23866 0,-7.29733 -5.94134,-13.23828 -13.23866,-13.23828 z m 0,2.3822 c 4.87395,0 8.98241,3.18766 10.36137,7.59827 -2.13169,0.3606 -7.42015,1.20243 -10.41667,1.20461 -2.99426,0.003 -8.20932,-0.8224 -10.315,-1.17682 1.37034,-4.42504 5.48606,-7.62607 10.3703,-7.62606 z m 1.8e-4,9.55753 a 1.298761,1.298761 0 0 1 1.29875,1.29874 1.298761,1.298761 0 0 1 -1.29875,1.29884 1.298761,1.298761 0 0 1 -1.29874,-1.29884 1.298761,1.298761 0 0 1 1.29874,-1.29874 z m 10.81367,0.34052 c 0.0275,0.31568 0.0423,0.63505 0.0423,0.95803 0,5.4036 -3.918,9.86652 -9.07688,10.71189 -0.37097,0.0439 -0.67117,-0.044 -0.65469,-0.4616 v -6.61759 c 0,0 -0.0378,-1.15265 0.37819,-1.69476 0.41598,-0.54211 1.60333,-0.83067 1.60333,-0.83067 z m -21.63024,0.0289 7.55131,2.03644 c 0,0 1.17613,0.27786 1.60033,0.83068 0.42419,0.55282 0.54022,1.69476 0.54022,1.69476 v 6.61758 c -0.002,0.43735 -0.32344,0.48936 -0.68984,0.42826 -5.14151,-0.85909 -9.04173,-5.28724 -9.04173,-10.67855 0,-0.31313 0.014,-0.62287 0.0397,-0.92917 z"
       style="color:#000000;font-style:normal;font-variant:normal;font-weight:normal;font-stretch:normal;font-size:medium;line-height:normal;font-family:sans-serif;font-variant-ligatures:normal;font-variant-position:normal;font-variant-caps:normal;font-variant-numeric:normal;font-variant-alternates:normal;font-feature-settings:normal;text-indent:0;text-align:start;text-decoration:none;text-decoration-line:none;text-decoration-style:solid;text-decoration-color:#000000;letter-spacing:normal;word-spacing:normal;text-transform:none;writing-mode:lr-tb;direction:ltr;text-orientation:mixed;dominant-baseline:auto;baseline-shift:baseline;text-anchor:start;white-space:normal;shape-padding:0;clip-rule:nonzero;display:inline;overflow:visible;visibility:visible;isolation:auto;mix-blend-mode:normal;color-interpolation:sRGB;color-interpolation-filters:linearRGB;solid-color:#000000;solid-opacity:1;vector-effect:none;fill:#000000;fill-opacity:1;fill-rule:nonzero;stroke:none;stroke-width:2.24897;stroke-linecap:butt;stroke-linejoin:miter;stroke-miterlimit:4;stroke-dasharray:none;stroke-dashoffset:0;stroke-opacity:1;color-rendering:auto;image-rendering:auto;shape-rendering:auto;text-rendering:auto;enable-background:accumulate" />
    <circle
       r="17.652599"
       cy="205.94243"
       cx="392.08847"
       id="circle3965"
       style="fill:#ffffff;fill-opacity:1;stroke:#25bf86;stroke-width:3;stroke-miterlimit:4;stroke-dasharray:none;stroke-opacity:1" />
    <path
       inkscape:connector-curvature="0"
       id="path3967"
       d="m 388.35911,192.92561 c -1.18713,0 -2.14292,0.95579 -2.14292,2.14293 v 7.49172 h -0.35196 c -0.9667,0 -1.74519,0.77802 -1.74519,1.74472 v 11.91534 c 0,0.96671 0.77849,1.74519 1.74519,1.74519 h 12.44894 c 0.9667,0 1.74472,-0.77848 1.74472,-1.74519 v -11.91534 c 0,-0.9667 -0.77802,-1.74472 -1.74472,-1.74472 h -0.35244 v -7.49172 c 0,-1.18714 -0.95531,-2.14293 -2.14245,-2.14293 z m 0.92568,2.54773 h 5.60782 v 10.41783 a 5.7198358,5.7198358 0 0 1 2.91573,4.98176 5.7198358,5.7198358 0 0 1 -5.71964,5.71964 5.7198358,5.7198358 0 0 1 -5.72012,-5.71964 5.7198358,5.7198358 0 0 1 2.91621,-4.97799 z m 2.87987,1.93014 c -0.69381,-0.007 -1.41281,0.0713 -2.16368,0.25619 v 4.84918 h 1.52533 c 0.14694,0.63437 0.65512,2.82695 1.14648,4.8619 -0.20267,-0.0349 -0.40967,-0.0566 -0.62231,-0.0566 -2.01459,8e-5 -3.64798,1.63291 -3.64796,3.64749 -10e-6,2.01461 1.63338,3.6479 3.64796,3.64797 2.01465,3e-5 3.64752,-1.63329 3.64749,-3.64797 2e-5,-1.35091 -0.73599,-2.52727 -1.82728,-3.15775 -0.48836,-1.99581 -1.05972,-4.45092 -1.25546,-5.29502 h 1.56071 v -4.84917 c -0.64918,-0.15697 -1.31748,-0.24922 -2.01128,-0.2562 z m -0.11465,12.40788 c 0.63253,0 1.15025,0.51772 1.15025,1.15025 0,0.63253 -0.51772,1.15027 -1.15025,1.15027 -0.63252,0 -1.14978,-0.51774 -1.14978,-1.15027 0,-0.63253 0.51726,-1.15025 1.14978,-1.15025 z m 0,0.519 c -0.35226,0 -0.63127,0.279 -0.63127,0.63125 0,0.35227 0.27901,0.63316 0.63127,0.63316 0.35227,0 0.63316,-0.28089 0.63316,-0.63316 0,-0.35225 -0.28089,-0.63125 -0.63316,-0.63125 z"
       style="fill:#000000;fill-opacity:1;stroke:none;stroke-width:1.43165;stroke-miterlimit:4;stroke-dasharray:none;stroke-opacity:1" />
    <circle
       r="17.652599"
       cy="48.515823"
       cx="392.08847"
       id="circle3973"
       style="fill:#ffffff;fill-opacity:1;stroke:#5029c4;stroke-width:3;stroke-miterlimit:4;stroke-dasharray:none;stroke-opacity:1" />
    <g
       style="fill:#000000;fill-opacity:1"
       transform="matrix(0.94077569,0,0,0.94077569,273.13331,-77.932459)"
       id="g3981">
      <circle
         style="opacity:1;fill:#000000;fill-opacity:1;stroke:none;stroke-width:1.5;stroke-miterlimit:4;stroke-dasharray:none;stroke-opacity:1"
         id="circle3975"
         cx="121.85251"
         cy="146.77315"
         r="1.2408606" />
      <circle
         style="opacity:1;fill:#000000;fill-opacity:1;stroke:none;stroke-width:1.5;stroke-miterlimit:4;stroke-dasharray:none;stroke-opacity:1"
         id="circle3977"
         cx="126.4437"
         cy="146.77315"
         r="1.2408607" />
      <circle
         style="opacity:1;fill:#000000;fill-opacity:1;stroke:none;stroke-width:1.5;stroke-miterlimit:4;stroke-dasharray:none;stroke-opacity:1"
         id="circle3979"
         cx="131.03488"
         cy="146.77315"
         r="1.2408607" />
    </g>
    <path
       sodipodi:nodetypes="cscccccccccccccccccccccccccccccccccccccccccccccccccccccccccccccccccssccccccccccccccccccccccccccccccccccccc"
       inkscape:connector-curvature="0"
       id="path3983"
       d="m 392.0878,34.569999 c -7.80289,0 -14.1448,6.342942 -14.1448,14.145812 0,1.31289 0.18019,2.58429 0.51602,3.79127 l 0.13409,0.26254 3.62015,-0.94721 c -0.0886,-0.28306 -0.16493,-0.56978 -0.22889,-0.85937 l -2.11225,0.56618 c -0.17496,-0.76515 -0.2801,-1.55689 -0.30833,-2.36875 h 2.17653 c -0.008,-0.14809 -0.0137,-0.29634 -0.0158,-0.44466 0.004,-0.14836 0.0116,-0.29661 0.0222,-0.44465 h -2.18293 c 0.0283,-0.81193 0.13367,-1.60357 0.30867,-2.36875 l 2.1072,0.56449 c 0.0625,-0.28975 0.13741,-0.57671 0.22452,-0.86004 l -2.10551,-0.56416 c 0.23505,-0.77024 0.54293,-1.50815 0.91424,-2.20718 l 1.89277,1.09265 c 0.13816,-0.26256 0.28753,-0.51907 0.44769,-0.76882 l -1.89479,-1.09399 c 0.42464,-0.67809 0.91217,-1.31232 1.45484,-1.89481 l 1.54741,1.54742 c 0.20002,-0.21916 0.40936,-0.42962 0.62745,-0.63081 l -1.54573,-1.545722 c 0.58274,-0.54292 1.21705,-1.03041 1.89547,-1.455187 l 1.08928,1.886719 c 0.25049,-0.15851 0.50768,-0.3062 0.77084,-0.442652 l -1.09096,-1.889054 c 0.69958,-0.371645 1.43794,-0.67945 2.20885,-0.914584 l 0.56618,2.113588 c 0.28306,-0.0885 0.56978,-0.1647 0.85937,-0.22856 l -0.56584,-2.11157 c 0.76527,-0.174928 1.55675,-0.280184 2.36874,-0.308341 v 2.175871 c 0.14787,-0.008 0.2959,-0.0138 0.44399,-0.0158 0.14814,0.005 0.29617,0.0119 0.44399,0.0223 v -2.182263 c 0.81187,0.02823 1.60323,0.133375 2.36841,0.308332 l -0.5645,2.106531 c 0.28988,0.0626 0.57693,0.1374 0.86038,0.22452 l 0.56383,-2.104169 c 0.77083,0.235185 1.50931,0.542949 2.20885,0.914569 l -1.09231,1.89178 c 0.26222,0.138072 0.51839,0.287322 0.76782,0.447352 l 1.09365,-1.894127 c 0.67838,0.424765 1.31274,0.912315 1.89546,1.455185 l -1.54707,1.547072 c 0.21905,0.20015 0.4294,0.40958 0.63048,0.62778 l 1.54572,-1.54574 c 0.54252,0.58229 1.02994,1.21632 1.45451,1.89412 l -1.88638,1.08929 c 0.15865,0.25093 0.30645,0.50856 0.44298,0.77219 l 1.88974,-1.09097 c 0.3713,0.69888 0.67884,1.43679 0.91391,2.20684 l -2.11426,0.56652 c 0.0885,0.28304 0.16492,0.56977 0.22889,0.85937 l 2.11191,-0.56585 c 0.17503,0.76521 0.28041,1.55682 0.30867,2.36875 h -2.17653 c 0.008,0.14809 0.0137,0.29634 0.0158,0.44466 -0.004,0.14837 -0.0116,0.29662 -0.0222,0.44466 h 2.18294 c -0.0282,0.81188 -0.13334,1.6036 -0.30834,2.36875 l -2.10753,-0.56484 c -0.0625,0.28988 -0.13741,0.57693 -0.22452,0.86038 l 3.65112,0.95495 0.094,-0.27262 c 0.3359,-1.20699 0.51603,-2.47839 0.51603,-3.79128 0,-7.80289 -6.34325,-14.145814 -14.14614,-14.145814 z m -8.67532,6.679502 c 0,0 5.76986,6.57039 6.63673,7.59342 l 1.70355,1.83048 1.08362,-1.08362 c -0.7261,-0.7105 -0.51191,-0.41786 -1.61,-1.51595 -1.21623,-1.14172 -7.8139,-6.82433 -7.8139,-6.82433 z m 3.89811,11.87901 v 2.59899 h 1.12496 v -2.59899 z m 1.68609,0 v 2.59899 h 1.12496 v -2.59899 z m 1.68609,0 v 2.59899 h 1.12496 v -2.59899 z m 1.6861,0 v 2.59899 h 1.12496 v -2.59899 z m 1.68609,0 v 2.59899 h 1.12496 v -2.59899 z m 1.68609,0 v 2.59899 h 1.12496 v -2.59899 z"
       style="color:#000000;font-style:normal;font-variant:normal;font-weight:normal;font-stretch:normal;font-size:medium;line-height:normal;font-family:sans-serif;font-variant-ligatures:normal;font-variant-position:normal;font-variant-caps:normal;font-variant-numeric:normal;font-variant-alternates:normal;font-feature-settings:normal;text-indent:0;text-align:start;text-decoration:none;text-decoration-line:none;text-decoration-style:solid;text-decoration-color:#000000;letter-spacing:normal;word-spacing:normal;text-transform:none;writing-mode:lr-tb;direction:ltr;text-orientation:mixed;dominant-baseline:auto;baseline-shift:baseline;text-anchor:start;white-space:normal;shape-padding:0;clip-rule:nonzero;display:inline;overflow:visible;visibility:visible;isolation:auto;mix-blend-mode:normal;color-interpolation:sRGB;color-interpolation-filters:linearRGB;solid-color:#000000;solid-opacity:1;vector-effect:none;fill:#000000;fill-opacity:0.951807;fill-rule:nonzero;stroke:none;stroke-width:1.61022;stroke-linecap:butt;stroke-linejoin:miter;stroke-miterlimit:4;stroke-dasharray:none;stroke-dashoffset:0;stroke-opacity:1;color-rendering:auto;image-rendering:auto;shape-rendering:auto;text-rendering:auto;enable-background:accumulate" />
    <circle
       r="17.652599"
       cy="258.41797"
       cx="392.08847"
       id="circle3989"
       style="fill:#ffffff;fill-opacity:1;stroke:#2596bf;stroke-width:3;stroke-miterlimit:4;stroke-dasharray:none;stroke-opacity:1" />
    <g
       id="g4003"
       transform="matrix(0.84842998,0,0,0.84842998,119.00952,78.863814)">
      <path
         style="fill:#000000;fill-opacity:1;stroke:#ffffff;stroke-width:1.44171;stroke-linecap:butt;stroke-linejoin:miter;stroke-miterlimit:4;stroke-dasharray:none;stroke-opacity:1"
         d="m 309.33005,204.36457 12.53381,-7.23639 12.53381,7.23639 v 14.4728 l -12.53381,7.2364 -12.53381,-7.2364 z"
         id="path3991"
         sodipodi:nodetypes="ccccccc" />
      <path
         style="fill:none;stroke:#ffffff;stroke-width:1.44171;stroke-linecap:butt;stroke-linejoin:miter;stroke-miterlimit:4;stroke-dasharray:none;stroke-opacity:1"
         d="m 309.33005,204.36457 12.52069,7.2364 12.54693,-7.2364"
         id="path3993" />
      <path
         style="fill:none;stroke:#ffffff;stroke-width:1.44171;stroke-linecap:butt;stroke-linejoin:miter;stroke-miterlimit:4;stroke-dasharray:none;stroke-opacity:1"
         d="m 321.85074,211.60097 0.0131,14.4728"
         id="path3995" />
      <path
         style="fill:#ffffff;fill-opacity:0.931768;stroke:none;stroke-width:0.264583px;stroke-linecap:butt;stroke-linejoin:miter;stroke-opacity:1"
         d="m 313.91529,211.76694 v 4.78355 l 2.68074,-0.98367 z"
         id="path3997"
         sodipodi:nodetypes="cccc" />
      <ellipse
         style="fill:#ffffff;fill-opacity:0.931768;stroke:none;stroke-width:1.37989;stroke-miterlimit:4;stroke-dasharray:none"
         id="ellipse3999"
         cx="392.8175"
         cy="-0.95969868"
         rx="1.4037459"
         ry="1.9312021"
         transform="rotate(33.414139)" />
      <rect
         style="fill:#ffffff;fill-opacity:1;stroke:none;stroke-width:1.16121;stroke-miterlimit:4;stroke-dasharray:none"
         id="rect4001"
         width="2.8187675"
         height="2.8357718"
         x="20.918037"
         y="-393.96295"
         transform="matrix(-0.88089981,0.47330278,-0.87007019,-0.49292785,0,0)"
         inkscape:transform-center-x="0.013224043"
         inkscape:transform-center-y="-1.3406219" />
    </g>
    <rect
       style="fill:#ffffff;stroke-width:1"
       id="rect1004"
       width="54.421432"
       height="75.252151"
       x="101.88813"
       y="144.62663" />
    <rect
       style="fill:#ffffff;stroke-width:1"
       id="rect904"
       width="54.421432"
       height="75.252151"
       x="11.551848"
       y="144.62663" />
    <path
       id="path883-7"
       style="font-style:normal;font-variant:normal;font-weight:bold;font-stretch:normal;font-size:medium;line-height:1.25;font-family:Syncopate;-inkscape-font-specification:'Syncopate Bold';letter-spacing:0px;word-spacing:0px;fill:#5029c4;fill-opacity:1;stroke:none;stroke-width:0.307123"
       d="m 59.256064,206.88434 q -1.28368,0.048 -2.18345,0.13797 -0.89378,0.09 -1.48763,0.20995 -0.59385,0.11997 -0.93577,0.25793 -0.33591,0.13797 -0.50387,0.28193 -0.16796,0.14398 -0.20995,0.28793 -0.036,0.14396 -0.036,0.26394 0,0.14396 0.078,0.28192 0.078,0.13198 0.26993,0.23395 0.19796,0.10198 0.52187,0.16196 0.32391,0.06 0.8158,0.06 0.54586,0 1.06774,-0.084 0.52186,-0.084 0.98974,-0.22795 0.46788,-0.14996 0.87577,-0.34792 0.41391,-0.20394 0.73783,-0.43189 z m 0,3.76106 v -0.80979 q -0.4259,0.23395 -0.91777,0.41389 -0.48588,0.17996 -1.01374,0.30593 -0.52787,0.12596 -1.09173,0.18595 -0.55786,0.066 -1.12772,0.066 -0.66584,0 -1.28968,-0.12597 -0.61785,-0.12597 -1.09773,-0.40791 -0.47988,-0.28192 -0.7738,-0.73781 -0.28793,-0.45589 -0.28793,-1.11572 0,-0.83378 0.45588,-1.38565 0.45589,-0.55786 1.39166,-0.91177 0.93576,-0.35391 2.36341,-0.54587 1.43364,-0.19195 3.38915,-0.29992 v -0.17395 q 0,-0.20396 -0.10798,-0.40191 -0.10797,-0.20395 -0.3959,-0.35391 -0.28193,-0.15596 -0.7798,-0.25194 -0.49188,-0.0959 -1.25968,-0.0959 -0.60585,0 -1.19971,0.066 -0.58785,0.06 -1.13971,0.16795 -0.54586,0.10798 -1.03774,0.25193 -0.49188,0.14398 -0.89378,0.29993 v -1.97951 q 0.4199,-0.10796 0.94178,-0.20994 0.52186,-0.10198 1.08572,-0.17395 0.56385,-0.078 1.13972,-0.11997 0.57585,-0.048 1.10372,-0.048 1.03774,0 1.91352,0.17396 0.87578,0.16795 1.50562,0.52787 0.63584,0.3599 0.98975,0.91177 0.35991,0.55186 0.35991,1.31367 v 5.46463 z"
       inkscape:connector-curvature="0"
       inkscape:export-filename="/home/ml/Documents/FRFgrafik/2020_aura/logo_aura_col.png"
       inkscape:export-xdpi="300.15356"
       inkscape:export-ydpi="300.15356" />
    <path
       id="path879-5"
       style="font-style:normal;font-variant:normal;font-weight:bold;font-stretch:normal;font-size:medium;line-height:1.25;font-family:Syncopate;-inkscape-font-specification:'Syncopate Bold';letter-spacing:0px;word-spacing:0px;fill:#e42e1c;fill-opacity:1;stroke:none;stroke-width:0.307123"
       d="m 47.540994,205.00681 q 0,-0.23993 -0.066,-0.40789 -0.06,-0.16795 -0.21594,-0.26994 -0.15597,-0.10797 -0.4199,-0.15596 -0.25793,-0.048 -0.64784,-0.048 h -3.04724 v 1.76357 h 3.04724 q 0.38991,0 0.64784,-0.048 0.26393,-0.048 0.4199,-0.14996 0.15595,-0.10797 0.21594,-0.27593 0.066,-0.16796 0.066,-0.4079 z m -4.3969,5.63859 h -2.22545 v -8.24193 h 5.5786 q 0.89979,0 1.52362,0.18595 0.62986,0.18596 1.01975,0.52786 0.39591,0.34193 0.56986,0.8278 0.17995,0.47988 0.17995,1.07374 0,0.52186 -0.14996,0.91177 -0.14396,0.3899 -0.3959,0.67183 -0.24593,0.27593 -0.57585,0.46788 -0.32992,0.19195 -0.69583,0.31792 l 2.69933,3.25718 h -2.60335 l -2.49538,-3.03523 h -2.42939 z"
       inkscape:connector-curvature="0"
       inkscape:export-filename="/home/ml/Documents/FRFgrafik/2020_aura/logo_aura_col.png"
       inkscape:export-xdpi="300.15356"
       inkscape:export-ydpi="300.15356" />
    <path
       style="font-style:normal;font-variant:normal;font-weight:bold;font-stretch:normal;font-size:medium;line-height:1.25;font-family:Syncopate;-inkscape-font-specification:'Syncopate Bold';letter-spacing:0px;word-spacing:0px;fill:#ffb600;fill-opacity:1;stroke:none;stroke-width:0.307123"
       d="m 30.487254,202.40347 v 4.64284 q 0,0.46188 0.078,0.83979 0.078,0.3719 0.28793,0.64184 0.20995,0.26392 0.58785,0.4139 0.3779,0.14396 0.98376,0.14396 0.45588,0 0.95376,-0.12597 0.50387,-0.12597 0.99575,-0.33592 0.49188,-0.20994 0.93576,-0.47988 0.44989,-0.27593 0.8038,-0.56986 v -5.1707 h 2.21945 v 8.24193 h -2.21945 v -1.12771 q -0.4199,0.23994 -0.89378,0.48588 -0.47387,0.23994 -1.00775,0.43789 -0.53386,0.19194 -1.13371,0.31192 -0.59985,0.12597 -1.26569,0.12597 -0.83379,0 -1.49362,-0.20395 -0.65983,-0.19795 -1.11572,-0.56386 -0.45589,-0.37191 -0.70183,-0.89377 -0.23994,-0.52787 -0.23994,-1.17572 v -5.63858 z"
       id="path877-3"
       inkscape:connector-curvature="0"
       inkscape:export-filename="/home/ml/Documents/FRFgrafik/2020_aura/logo_aura_col.png"
       inkscape:export-xdpi="300.15356"
       inkscape:export-ydpi="300.15356" />
    <path
       id="path895-5-3-5"
       style="font-style:normal;font-variant:normal;font-weight:bold;font-stretch:normal;font-size:medium;line-height:1.25;font-family:Syncopate;-inkscape-font-specification:'Syncopate Bold';letter-spacing:0px;word-spacing:0px;fill:#25bf86;fill-opacity:1;stroke:none;stroke-width:0.307123"
       d="m 19.941894,207.47819 h 3.01124 l -1.49962,-3.03524 z m 3.79705,1.60761 h -4.59486 l -0.7738,1.5596 h -2.48338 l 4.31292,-8.24193 h 2.48338 l 4.31293,8.24193 h -2.48339 z"
       inkscape:connector-curvature="0"
       inkscape:export-filename="/home/ml/Documents/FRFgrafik/2020_aura/logo_aura_col.png"
       inkscape:export-xdpi="300.15356"
       inkscape:export-ydpi="300.15356" />
    <rect
       style="fill:#4d4d4d;fill-opacity:1;stroke:none;stroke-width:0.659502;stroke-miterlimit:4;stroke-dasharray:none;stroke-opacity:0"
       id="rect1567"
       width="73.542831"
       height="73.542831"
       x="182.66374"
       y="144.54068" />
    <rect
       style="fill:#4d4d4d;fill-opacity:1;stroke:none;stroke-width:0.725674;stroke-miterlimit:4;stroke-dasharray:none;stroke-opacity:0"
       id="rect1567-9"
       width="136.72894"
       height="47.892845"
       x="147.98726"
       y="86.187317" />
    <path
       inkscape:connector-curvature="0"
       id="path895-5"
       style="font-style:normal;font-variant:normal;font-weight:bold;font-stretch:normal;font-size:medium;line-height:1.25;font-family:Syncopate;-inkscape-font-specification:'Syncopate Bold';letter-spacing:0px;word-spacing:0px;fill:#000000;fill-opacity:1;stroke:none;stroke-width:0.54102"
       d="M 124.76467,118.39552 V 116.969 q -0.75024,0.41211 -1.61672,0.7291 -0.85591,0.31701 -1.78578,0.53892 -0.92987,0.2219 -1.92316,0.32756 -0.98272,0.11622 -1.98656,0.11622 -1.17293,0 -2.27186,-0.22192 -1.08839,-0.2219 -1.93373,-0.71855 -0.84534,-0.49664 -1.3631,-1.29971 -0.50722,-0.80307 -0.50722,-1.96542 0,-1.46877 0.80308,-2.44093 0.80308,-0.9827 2.4515,-1.60616 1.6484,-0.62342 4.16332,-0.96157 2.52546,-0.33814 5.97023,-0.52833 v -0.30643 q 0,-0.35929 -0.1902,-0.708 -0.19021,-0.35927 -0.69742,-0.62344 -0.49663,-0.27473 -1.37366,-0.4438 -0.86648,-0.16901 -2.21903,-0.16901 -1.06725,0 -2.11337,0.11621 -1.03554,0.1056 -2.00769,0.29586 -0.96157,0.1902 -1.82805,0.44378 -0.86649,0.25364 -1.57445,0.52836 v -3.48706 q 0.73967,-0.19018 1.65899,-0.36983 0.9193,-0.17964 1.91258,-0.30642 0.99327,-0.1374 2.0077,-0.21134 1.01441,-0.0846 1.94429,-0.0846 1.82806,0 3.37081,0.30644 1.54274,0.29587 2.65225,0.92988 1.12009,0.634 1.74353,1.60616 0.63401,0.97214 0.63401,2.31413 v 9.62634 z m 0,-6.62539 q -2.26128,0.0846 -3.8463,0.24304 -1.57445,0.1586 -2.62057,0.36984 -1.04611,0.21134 -1.64842,0.45436 -0.59174,0.24305 -0.88761,0.49664 -0.29588,0.25363 -0.36984,0.50721 -0.0634,0.25361 -0.0634,0.46495 0,0.25361 0.13739,0.49664 0.1374,0.23247 0.47552,0.41211 0.3487,0.17963 0.91929,0.2853 0.57061,0.10561 1.43709,0.10561 0.96159,0 1.88091,-0.14799 0.91929,-0.148 1.74351,-0.40155 0.8242,-0.26417 1.54273,-0.61289 0.72912,-0.35926 1.29973,-0.7608 z m -28.382415,6.62539 h -3.92028 v -14.51877 h 9.827115 q 1.58503,0 2.68397,0.32756 1.10953,0.32758 1.79636,0.92987 0.69741,0.60233 1.00384,1.45822 0.31701,0.84535 0.31701,1.89147 0,0.91929 -0.26418,1.60615 -0.25359,0.68684 -0.6974,1.18349 -0.43323,0.48607 -1.0144,0.82419 -0.58118,0.33815 -1.22576,0.56005 l 4.75505,5.73777 h -4.58597 l -4.3958,-5.3468 h -4.279555 z m 7.745475,-9.9328 q 0,-0.42266 -0.11621,-0.71853 -0.10562,-0.29586 -0.3804,-0.47551 -0.27474,-0.1902 -0.73969,-0.27474 -0.45437,-0.0846 -1.1412,-0.0846 h -5.367945 v 3.10665 h 5.367945 q 0.68683,0 1.1412,-0.0846 0.46495,-0.0846 0.73969,-0.26417 0.27472,-0.1902 0.3804,-0.48606 0.11621,-0.29588 0.11621,-0.71855 z m -30.041416,-4.58597 v 8.1787 q 0,0.81364 0.13737,1.47934 0.13737,0.65514 0.5072,1.13065 0.36984,0.46493 1.03555,0.72911 0.6657,0.25361 1.73296,0.25361 0.80308,0 1.68011,-0.2219 0.88762,-0.22191 1.7541,-0.59176 0.86648,-0.36983 1.64841,-0.84534 0.79252,-0.48606 1.415951,-1.00384 v -9.10857 h 3.90972 v 14.51877 h -3.90972 v -1.98657 q -0.739671,0.42269 -1.574451,0.85593 -0.83477,0.42266 -1.77523,0.77137 -0.94043,0.33813 -1.99712,0.54948 -1.05667,0.2219 -2.2296,0.2219 -1.46878,0 -2.63112,-0.35927 -1.16234,-0.34871 -1.96543,-0.99328 -0.80308,-0.65514 -1.23631,-1.57446 -0.42268,-0.92988 -0.42268,-2.0711 v -9.93277 z m -11.88765,11.77141 h -8.09417 l -1.36312,2.74736 h -4.37465 l 7.59753,-14.51877 h 4.37465 l 7.59754,14.51877 h -4.37466 z m -6.68878,-2.83192 h 5.30453 l -2.6417,-5.3468 z" />
    <path
       inkscape:connector-curvature="0"
       id="circle1631-0-7-1-7-6-3-3"
       style="color:#000000;font-style:normal;font-variant:normal;font-weight:normal;font-stretch:normal;font-size:medium;line-height:normal;font-family:sans-serif;font-variant-ligatures:normal;font-variant-position:normal;font-variant-caps:normal;font-variant-numeric:normal;font-variant-alternates:normal;font-feature-settings:normal;text-indent:0;text-align:start;text-decoration:none;text-decoration-line:none;text-decoration-style:solid;text-decoration-color:#000000;letter-spacing:normal;word-spacing:normal;text-transform:none;writing-mode:lr-tb;direction:ltr;text-orientation:mixed;dominant-baseline:auto;baseline-shift:baseline;text-anchor:start;white-space:normal;shape-padding:0;clip-rule:nonzero;display:inline;overflow:visible;visibility:visible;isolation:auto;mix-blend-mode:normal;color-interpolation:sRGB;color-interpolation-filters:linearRGB;solid-color:#000000;solid-opacity:1;vector-effect:none;fill:#000000;fill-opacity:1;fill-rule:nonzero;stroke:none;stroke-width:2.05117;stroke-linecap:butt;stroke-linejoin:miter;stroke-miterlimit:4;stroke-dasharray:none;stroke-dashoffset:0;stroke-opacity:1;color-rendering:auto;image-rendering:auto;shape-rendering:auto;text-rendering:auto;enable-background:accumulate"
       d="m 30.403164,100.56045 c -5.66633,0 -10.2815,4.61518 -10.2815,10.2815 0,5.66633 4.61517,10.28194 10.2815,10.28194 5.66633,0 10.28196,-4.61561 10.28196,-10.28194 0,-5.66632 -4.61563,-10.2815 -10.28196,-10.2815 z m 0,2.051 c 4.55779,0 8.23095,3.67271 8.23095,8.2305 0,4.55779 -3.67316,8.23096 -8.23095,8.23096 -4.55779,0 -8.2305,-3.67317 -8.2305,-8.23096 0,-4.55779 3.67271,-8.2305 8.2305,-8.2305 z m 0,0.52729 c -4.24814,0 -7.70322,3.45506 -7.70322,7.70321 0,4.24814 3.45508,7.7037 7.70322,7.7037 4.24813,0 7.70368,-3.45556 7.70368,-7.7037 0,-4.24815 -3.45555,-7.70321 -7.70368,-7.70321 z m 0,1.08332 c 3.66253,0 6.62035,2.95734 6.62035,6.61989 0,3.66255 -2.95782,6.61989 -6.62035,6.61989 -3.66253,0 -6.61989,-2.95734 -6.61989,-6.61989 0,-3.66255 2.95736,-6.61989 6.61989,-6.61989 z" />
    <path
       inkscape:connector-curvature="0"
       id="circle1631-0-7-1-7-6-3"
       style="color:#000000;font-style:normal;font-variant:normal;font-weight:normal;font-stretch:normal;font-size:medium;line-height:normal;font-family:sans-serif;font-variant-ligatures:normal;font-variant-position:normal;font-variant-caps:normal;font-variant-numeric:normal;font-variant-alternates:normal;font-feature-settings:normal;text-indent:0;text-align:start;text-decoration:none;text-decoration-line:none;text-decoration-style:solid;text-decoration-color:#000000;letter-spacing:normal;word-spacing:normal;text-transform:none;writing-mode:lr-tb;direction:ltr;text-orientation:mixed;dominant-baseline:auto;baseline-shift:baseline;text-anchor:start;white-space:normal;shape-padding:0;clip-rule:nonzero;display:inline;overflow:visible;visibility:visible;isolation:auto;mix-blend-mode:normal;color-interpolation:sRGB;color-interpolation-filters:linearRGB;solid-color:#000000;solid-opacity:1;vector-effect:none;fill:#000000;fill-opacity:1;fill-rule:nonzero;stroke:none;stroke-width:4.23649;stroke-linecap:butt;stroke-linejoin:miter;stroke-miterlimit:4;stroke-dasharray:none;stroke-dashoffset:0;stroke-opacity:1;color-rendering:auto;image-rendering:auto;shape-rendering:auto;text-rendering:auto;enable-background:accumulate"
       d="m 38.762084,152.91236 c -11.70322,0 -21.23538,9.53215 -21.23538,21.23538 0,11.70323 9.53216,21.23631 21.23538,21.23631 11.70322,0 21.23634,-9.53308 21.23634,-21.23631 0,-11.70323 -9.53312,-21.23538 -21.23634,-21.23538 z m 0,4.23612 c 9.41365,0 17.0002,7.58559 17.0002,16.99926 0,9.41365 -7.58655,17.00019 -17.0002,17.00019 -9.41365,0 -16.99924,-7.58654 -16.99924,-17.00019 0,-9.41367 7.58559,-16.99926 16.99924,-16.99926 z m 0,1.08904 c -8.77408,0 -15.91022,7.13611 -15.91022,15.91022 0,8.77407 7.13614,15.9112 15.91022,15.9112 8.77408,0 15.91118,-7.13713 15.91118,-15.9112 0,-8.77411 -7.1371,-15.91022 -15.91118,-15.91022 z m 0,2.23753 c 7.56459,0 13.67366,6.10809 13.67366,13.67269 0,7.56461 -6.10907,13.6727 -13.67366,13.6727 -7.56458,0 -13.6727,-6.10809 -13.6727,-13.6727 0,-7.5646 6.10812,-13.67269 13.6727,-13.67269 z"
       inkscape:export-filename="/home/ml/Documents/FRFgrafik/2020_aura/logo_aura_col.png"
       inkscape:export-xdpi="300.15356"
       inkscape:export-ydpi="300.15356" />
    <g
       id="g5303"
       transform="translate(3.9887544,-57.151925)">
      <path
         d="m 200.53904,266.97582 h -4.58319 l -0.77185,1.55565 h -2.47708 l 4.30199,-8.22103 h 2.47708 l 4.30198,8.22103 h -2.47708 z m -3.78742,-1.60353 h 3.00361 l -1.49582,-3.02754 z"
         style="font-style:normal;font-variant:normal;font-weight:bold;font-stretch:normal;font-size:medium;line-height:1.25;font-family:Syncopate;-inkscape-font-specification:'Syncopate Bold';letter-spacing:0px;word-spacing:0px;fill:#f9f9f9;fill-opacity:1;stroke:none;stroke-width:0.306344"
         id="path889-6"
         inkscape:connector-curvature="0" />
      <path
         d="m 207.27024,260.31044 v 4.63106 q 0,0.46071 0.0778,0.83766 0.0778,0.37096 0.2872,0.64021 0.20942,0.26326 0.58636,0.41285 0.37695,0.1436 0.98126,0.1436 0.45473,0 0.95134,-0.12565 0.5026,-0.12565 0.99323,-0.33507 0.49063,-0.20941 0.93339,-0.47866 0.44875,-0.27523 0.80176,-0.56841 v -5.15759 h 2.21382 v 8.22103 h -2.21382 v -1.12486 q -0.41883,0.23934 -0.89151,0.48465 -0.47268,0.23933 -1.00519,0.43678 -0.53251,0.19146 -1.13084,0.31113 -0.59833,0.12565 -1.26248,0.12565 -0.83167,0 -1.48983,-0.20343 -0.65816,-0.19745 -1.11289,-0.56243 -0.45473,-0.37096 -0.70005,-0.89151 -0.23933,-0.52653 -0.23933,-1.17273 v -5.62428 z"
         style="font-style:normal;font-variant:normal;font-weight:bold;font-stretch:normal;font-size:medium;line-height:1.25;font-family:Syncopate;-inkscape-font-specification:'Syncopate Bold';letter-spacing:0px;word-spacing:0px;fill:#f9f9f9;fill-opacity:1;stroke:none;stroke-width:0.306344"
         id="path891-2"
         inkscape:connector-curvature="0" />
      <path
         d="m 219.89497,268.53147 h -2.21979 v -8.22103 h 5.56445 q 0.89749,0 1.51975,0.18548 0.62825,0.18548 1.01716,0.52652 0.3949,0.34106 0.56842,0.8257 0.1795,0.47866 0.1795,1.07101 0,0.52054 -0.14959,0.90946 -0.1436,0.38891 -0.39489,0.67013 -0.24532,0.27523 -0.5744,0.46669 -0.32908,0.19147 -0.69406,0.31712 l 2.69248,3.24892 h -2.59675 l -2.48904,-3.02754 h -2.42324 z m 4.38575,-5.62429 q 0,-0.23933 -0.0658,-0.40686 -0.0598,-0.16753 -0.21539,-0.26925 -0.15557,-0.1077 -0.41883,-0.15557 -0.25729,-0.0479 -0.6462,-0.0479 h -3.03951 v 1.75909 h 3.03951 q 0.38891,0 0.6462,-0.0479 0.26326,-0.0479 0.41883,-0.14958 0.15556,-0.1077 0.21539,-0.27523 0.0658,-0.16753 0.0658,-0.40686 z"
         style="font-style:normal;font-variant:normal;font-weight:bold;font-stretch:normal;font-size:medium;line-height:1.25;font-family:Syncopate;-inkscape-font-specification:'Syncopate Bold';letter-spacing:0px;word-spacing:0px;fill:#f9f9f9;fill-opacity:1;stroke:none;stroke-width:0.306344"
         id="path893-9"
         inkscape:connector-curvature="0" />
      <path
         d="m 235.96608,268.53147 v -0.80774 q -0.42481,0.23335 -0.91544,0.41284 -0.48465,0.1795 -1.01118,0.30515 -0.52653,0.12565 -1.08896,0.18548 -0.55644,0.0658 -1.12485,0.0658 -0.66415,0 -1.28641,-0.12565 -0.61628,-0.12565 -1.09494,-0.40687 -0.47866,-0.28121 -0.77185,-0.73594 -0.2872,-0.45473 -0.2872,-1.11289 0,-0.83167 0.45473,-1.38214 0.45474,-0.55644 1.38813,-0.90946 0.93339,-0.35301 2.35741,-0.54448 1.43001,-0.19146 3.38056,-0.29916 v -0.17351 q 0,-0.20344 -0.1077,-0.40089 -0.1077,-0.20343 -0.3949,-0.35301 -0.28121,-0.15557 -0.77783,-0.2513 -0.49062,-0.0957 -1.25648,-0.0957 -0.60431,0 -1.19666,0.0658 -0.58637,0.0598 -1.13683,0.16753 -0.54448,0.1077 -1.0351,0.25129 -0.49063,0.14361 -0.89151,0.29917 v -1.97449 q 0.41883,-0.10769 0.93937,-0.20941 0.52055,-0.10172 1.08298,-0.17351 0.56243,-0.0778 1.13682,-0.11967 0.5744,-0.0479 1.10093,-0.0479 1.03511,0 1.90867,0.17352 0.87355,0.16753 1.5018,0.52653 0.63423,0.35899 0.98724,0.90946 0.359,0.55046 0.359,1.31034 v 5.45077 z m 0,-3.75152 q -1.28043,0.0479 -2.17792,0.13762 -0.8915,0.0898 -1.48385,0.20941 -0.59234,0.11967 -0.9334,0.25728 -0.33506,0.13762 -0.50259,0.28121 -0.16753,0.14361 -0.20942,0.2872 -0.0359,0.1436 -0.0359,0.26327 0,0.1436 0.0778,0.28121 0.0778,0.13164 0.26925,0.23335 0.19745,0.10172 0.52055,0.16155 0.3231,0.0598 0.81373,0.0598 0.54448,0 1.06502,-0.0838 0.52055,-0.0838 0.98724,-0.22737 0.4667,-0.14958 0.87356,-0.34703 0.41285,-0.20343 0.73595,-0.4308 z"
         style="font-style:normal;font-variant:normal;font-weight:bold;font-stretch:normal;font-size:medium;line-height:1.25;font-family:Syncopate;-inkscape-font-specification:'Syncopate Bold';letter-spacing:0px;word-spacing:0px;fill:#f9f9f9;fill-opacity:1;stroke:none;stroke-width:0.306344"
         id="path895-1"
         inkscape:connector-curvature="0" />
      <path
         d="m 215.44595,211.12262 c -11.70322,0 -21.23538,9.53215 -21.23538,21.23538 0,11.70323 9.53216,21.23631 21.23538,21.23631 11.70322,0 21.23634,-9.53308 21.23634,-21.23631 0,-11.70323 -9.53312,-21.23538 -21.23634,-21.23538 z m 0,4.23612 c 9.41365,0 17.0002,7.58559 17.0002,16.99926 0,9.41365 -7.58655,17.00019 -17.0002,17.00019 -9.41365,0 -16.99924,-7.58654 -16.99924,-17.00019 0,-9.41367 7.58559,-16.99926 16.99924,-16.99926 z m 0,1.08904 c -8.77408,0 -15.91022,7.13611 -15.91022,15.91022 0,8.77407 7.13614,15.9112 15.91022,15.9112 8.77408,0 15.91118,-7.13713 15.91118,-15.9112 0,-8.77411 -7.1371,-15.91022 -15.91118,-15.91022 z m 0,2.23753 c 7.56459,0 13.67366,6.10809 13.67366,13.67269 0,7.56461 -6.10907,13.6727 -13.67366,13.6727 -7.56458,0 -13.6727,-6.10809 -13.6727,-13.6727 0,-7.5646 6.10812,-13.67269 13.6727,-13.67269 z"
         style="color:#000000;font-style:normal;font-variant:normal;font-weight:normal;font-stretch:normal;font-size:medium;line-height:normal;font-family:sans-serif;font-variant-ligatures:normal;font-variant-position:normal;font-variant-caps:normal;font-variant-numeric:normal;font-variant-alternates:normal;font-feature-settings:normal;text-indent:0;text-align:start;text-decoration:none;text-decoration-line:none;text-decoration-style:solid;text-decoration-color:#000000;letter-spacing:normal;word-spacing:normal;text-transform:none;writing-mode:lr-tb;direction:ltr;text-orientation:mixed;dominant-baseline:auto;baseline-shift:baseline;text-anchor:start;white-space:normal;shape-padding:0;clip-rule:nonzero;display:inline;overflow:visible;visibility:visible;opacity:1;isolation:auto;mix-blend-mode:normal;color-interpolation:sRGB;color-interpolation-filters:linearRGB;solid-color:#000000;solid-opacity:1;vector-effect:none;fill:#ffffff;fill-opacity:1;fill-rule:nonzero;stroke:none;stroke-width:4.23649;stroke-linecap:butt;stroke-linejoin:miter;stroke-miterlimit:4;stroke-dasharray:none;stroke-dashoffset:0;stroke-opacity:1;color-rendering:auto;image-rendering:auto;shape-rendering:auto;text-rendering:auto;enable-background:accumulate"
         id="circle1631-0-7-1-7-6-3-2-29"
         inkscape:connector-curvature="0" />
    </g>
    <g
       id="g5296"
       transform="translate(9.6584044,-58.210259)">
      <path
         inkscape:connector-curvature="0"
         id="path5274"
         style="font-style:normal;font-variant:normal;font-weight:bold;font-stretch:normal;font-size:medium;line-height:1.25;font-family:Syncopate;-inkscape-font-specification:'Syncopate Bold';letter-spacing:0px;word-spacing:0px;fill:#000000;fill-opacity:1;stroke:none;stroke-width:0.306344"
         d="m 104.53309,266.97582 h -4.583192 l -0.77185,1.55565 h -2.47708 l 4.301992,-8.22103 h 2.47708 l 4.30198,8.22103 h -2.47708 z m -3.78742,-1.60353 h 3.00361 l -1.49582,-3.02754 z" />
      <path
         inkscape:connector-curvature="0"
         id="path5276"
         style="font-style:normal;font-variant:normal;font-weight:bold;font-stretch:normal;font-size:medium;line-height:1.25;font-family:Syncopate;-inkscape-font-specification:'Syncopate Bold';letter-spacing:0px;word-spacing:0px;fill:#000000;fill-opacity:1;stroke:none;stroke-width:0.306344"
         d="m 111.26429,260.31044 v 4.63106 q 0,0.46071 0.0778,0.83766 0.0778,0.37096 0.2872,0.64021 0.20942,0.26326 0.58636,0.41285 0.37695,0.1436 0.98126,0.1436 0.45473,0 0.95134,-0.12565 0.5026,-0.12565 0.99323,-0.33507 0.49063,-0.20941 0.93339,-0.47866 0.44875,-0.27523 0.80176,-0.56841 v -5.15759 h 2.21382 v 8.22103 h -2.21382 v -1.12486 q -0.41883,0.23934 -0.89151,0.48465 -0.47268,0.23933 -1.00519,0.43678 -0.53251,0.19146 -1.13084,0.31113 -0.59833,0.12565 -1.26248,0.12565 -0.83167,0 -1.48983,-0.20343 -0.65816,-0.19745 -1.11289,-0.56243 -0.45473,-0.37096 -0.70005,-0.89151 -0.23933,-0.52653 -0.23933,-1.17273 v -5.62428 z" />
      <path
         inkscape:connector-curvature="0"
         id="path5278"
         style="font-style:normal;font-variant:normal;font-weight:bold;font-stretch:normal;font-size:medium;line-height:1.25;font-family:Syncopate;-inkscape-font-specification:'Syncopate Bold';letter-spacing:0px;word-spacing:0px;fill:#000000;fill-opacity:1;stroke:none;stroke-width:0.306344"
         d="m 123.88902,268.53147 h -2.21979 v -8.22103 h 5.56445 q 0.89749,0 1.51975,0.18548 0.62825,0.18548 1.01716,0.52652 0.3949,0.34106 0.56842,0.8257 0.1795,0.47866 0.1795,1.07101 0,0.52054 -0.14959,0.90946 -0.1436,0.38891 -0.39489,0.67013 -0.24532,0.27523 -0.5744,0.46669 -0.32908,0.19147 -0.69406,0.31712 l 2.69248,3.24892 h -2.59675 l -2.48904,-3.02754 h -2.42324 z m 4.38575,-5.62429 q 0,-0.23933 -0.0658,-0.40686 -0.0598,-0.16753 -0.21539,-0.26925 -0.15557,-0.1077 -0.41883,-0.15557 -0.25729,-0.0479 -0.6462,-0.0479 h -3.03951 v 1.75909 h 3.03951 q 0.38891,0 0.6462,-0.0479 0.26326,-0.0479 0.41883,-0.14958 0.15556,-0.1077 0.21539,-0.27523 0.0658,-0.16753 0.0658,-0.40686 z" />
      <path
         inkscape:connector-curvature="0"
         id="path5280"
         style="font-style:normal;font-variant:normal;font-weight:bold;font-stretch:normal;font-size:medium;line-height:1.25;font-family:Syncopate;-inkscape-font-specification:'Syncopate Bold';letter-spacing:0px;word-spacing:0px;fill:#000000;fill-opacity:1;stroke:none;stroke-width:0.306344"
         d="m 139.96013,268.53147 v -0.80774 q -0.42481,0.23335 -0.91544,0.41284 -0.48465,0.1795 -1.01118,0.30515 -0.52653,0.12565 -1.08896,0.18548 -0.55644,0.0658 -1.12485,0.0658 -0.66415,0 -1.28641,-0.12565 -0.61628,-0.12565 -1.09494,-0.40687 -0.47866,-0.28121 -0.77185,-0.73594 -0.2872,-0.45473 -0.2872,-1.11289 0,-0.83167 0.45473,-1.38214 0.45474,-0.55644 1.38813,-0.90946 0.93339,-0.35301 2.35741,-0.54448 1.43001,-0.19146 3.38056,-0.29916 v -0.17351 q 0,-0.20344 -0.1077,-0.40089 -0.1077,-0.20343 -0.3949,-0.35301 -0.28121,-0.15557 -0.77783,-0.2513 -0.49062,-0.0957 -1.25648,-0.0957 -0.60431,0 -1.19666,0.0658 -0.58637,0.0598 -1.13683,0.16753 -0.54448,0.1077 -1.0351,0.25129 -0.49063,0.14361 -0.89151,0.29917 v -1.97449 q 0.41883,-0.10769 0.93937,-0.20941 0.52055,-0.10172 1.08298,-0.17351 0.56243,-0.0778 1.13682,-0.11967 0.5744,-0.0479 1.10093,-0.0479 1.03511,0 1.90867,0.17352 0.87355,0.16753 1.5018,0.52653 0.63423,0.35899 0.98724,0.90946 0.359,0.55046 0.359,1.31034 v 5.45077 z m 0,-3.75152 q -1.28043,0.0479 -2.17792,0.13762 -0.8915,0.0898 -1.48385,0.20941 -0.59234,0.11967 -0.9334,0.25728 -0.33506,0.13762 -0.50259,0.28121 -0.16753,0.14361 -0.20942,0.2872 -0.0359,0.1436 -0.0359,0.26327 0,0.1436 0.0778,0.28121 0.0778,0.13164 0.26925,0.23335 0.19745,0.10172 0.52055,0.16155 0.3231,0.0598 0.81373,0.0598 0.54448,0 1.06502,-0.0838 0.52055,-0.0838 0.98724,-0.22737 0.4667,-0.14958 0.87356,-0.34703 0.41285,-0.20343 0.73595,-0.4308 z" />
      <path
         inkscape:connector-curvature="0"
         id="path5282"
         style="color:#000000;font-style:normal;font-variant:normal;font-weight:normal;font-stretch:normal;font-size:medium;line-height:normal;font-family:sans-serif;font-variant-ligatures:normal;font-variant-position:normal;font-variant-caps:normal;font-variant-numeric:normal;font-variant-alternates:normal;font-feature-settings:normal;text-indent:0;text-align:start;text-decoration:none;text-decoration-line:none;text-decoration-style:solid;text-decoration-color:#000000;letter-spacing:normal;word-spacing:normal;text-transform:none;writing-mode:lr-tb;direction:ltr;text-orientation:mixed;dominant-baseline:auto;baseline-shift:baseline;text-anchor:start;white-space:normal;shape-padding:0;clip-rule:nonzero;display:inline;overflow:visible;visibility:visible;opacity:1;isolation:auto;mix-blend-mode:normal;color-interpolation:sRGB;color-interpolation-filters:linearRGB;solid-color:#000000;solid-opacity:1;vector-effect:none;fill:#000000;fill-opacity:1;fill-rule:nonzero;stroke:none;stroke-width:4.23649;stroke-linecap:butt;stroke-linejoin:miter;stroke-miterlimit:4;stroke-dasharray:none;stroke-dashoffset:0;stroke-opacity:1;color-rendering:auto;image-rendering:auto;shape-rendering:auto;text-rendering:auto;enable-background:accumulate"
         d="m 119.44,211.12262 c -11.70322,0 -21.235382,9.53215 -21.235382,21.23538 0,11.70323 9.532162,21.23631 21.235382,21.23631 11.70322,0 21.23634,-9.53308 21.23634,-21.23631 0,-11.70323 -9.53312,-21.23538 -21.23634,-21.23538 z m 0,4.23612 c 9.41365,0 17.0002,7.58559 17.0002,16.99926 0,9.41365 -7.58655,17.00019 -17.0002,17.00019 -9.41365,0 -16.99924,-7.58654 -16.99924,-17.00019 0,-9.41367 7.58559,-16.99926 16.99924,-16.99926 z m 0,1.08904 c -8.77408,0 -15.91022,7.13611 -15.91022,15.91022 0,8.77407 7.13614,15.9112 15.91022,15.9112 8.77408,0 15.91118,-7.13713 15.91118,-15.9112 0,-8.77411 -7.1371,-15.91022 -15.91118,-15.91022 z m 0,2.23753 c 7.56459,0 13.67366,6.10809 13.67366,13.67269 0,7.56461 -6.10907,13.6727 -13.67366,13.6727 -7.56458,0 -13.6727,-6.10809 -13.6727,-13.6727 0,-7.5646 6.10812,-13.67269 13.6727,-13.67269 z" />
    </g>
    <g
       transform="translate(-204.52767,153.3022)"
       style="display:inline"
       id="g1023">
      <path
         inkscape:connector-curvature="0"
         d="m 320.60752,97.904242 q -3.11279,0.116419 -5.29466,0.334565 -2.16733,0.218314 -3.60737,0.509095 -1.44003,0.290928 -2.26914,0.625464 -0.81456,0.334565 -1.22185,0.683644 -0.40729,0.34914 -0.50911,0.6982 -0.0872,0.34911 -0.0872,0.64003 0,0.34911 0.18913,0.68365 0.18914,0.32002 0.65457,0.5673 0.48002,0.24728 1.26548,0.39273 0.78546,0.14538 1.97823,0.14538 1.32367,0 2.58917,-0.20372 1.26547,-0.20372 2.40005,-0.55276 1.13456,-0.36363 2.12366,-0.84366 1.00369,-0.49455 1.78915,-1.0473 z m 0,9.120228 v -1.96368 q -1.03275,0.5673 -2.2255,1.00365 -1.17822,0.43638 -2.45823,0.74184 -1.28003,0.30546 -2.64735,0.45092 -1.35276,0.15997 -2.73461,0.15997 -1.61461,0 -3.12736,-0.30547 -1.49823,-0.30546 -2.66188,-0.98914 -1.16367,-0.68364 -1.8764,-1.78912 -0.69821,-1.10548 -0.69821,-2.70552 0,-2.021847 1.10548,-3.360079 1.10548,-1.352742 3.37463,-2.210963 2.26913,-0.858192 5.73107,-1.323672 3.47643,-0.465457 8.21836,-0.727278 v -0.421819 q 0,-0.494586 -0.26182,-0.974604 -0.26183,-0.494549 -0.96004,-0.858192 -0.68364,-0.378189 -1.89093,-0.610917 -1.19276,-0.232656 -3.05462,-0.232656 -1.46912,0 -2.90918,0.159962 -1.42548,0.145372 -2.76369,0.407281 -1.32367,0.261821 -2.51643,0.610895 -1.19276,0.349134 -2.16733,0.727315 v -4.800135 q 1.01821,-0.261799 2.28372,-0.509095 1.26546,-0.247289 2.63277,-0.421812 1.3673,-0.189135 2.76372,-0.29092 1.39638,-0.116419 2.67642,-0.116419 2.51643,0 4.64011,0.421841 2.12369,0.407266 3.65099,1.280032 1.54187,0.872731 2.40006,2.210963 0.87275,1.33821 0.87275,3.185537 v 13.251225 z"
         style="font-style:normal;font-variant:normal;font-weight:bold;font-stretch:normal;font-size:medium;line-height:1.25;font-family:Syncopate;-inkscape-font-specification:'Syncopate Bold';letter-spacing:0px;word-spacing:0px;fill:#5029c4;fill-opacity:1;stroke:none;stroke-width:0.744746"
         id="path883" />
      <path
         inkscape:connector-curvature="0"
         d="m 292.19956,93.351402 q 0,-0.581825 -0.15997,-0.989106 -0.14538,-0.407273 -0.52364,-0.65457 -0.3782,-0.261821 -1.01822,-0.378196 -0.62546,-0.116419 -1.57094,-0.116419 h -7.38928 v 4.276487 h 7.38928 q 0.94548,0 1.57094,-0.116419 0.64002,-0.116419 1.01822,-0.363635 0.37817,-0.261828 0.52364,-0.669102 0.15997,-0.407288 0.15997,-0.989113 z m -10.66209,13.673068 h -5.3965 V 87.038542 h 13.5276 q 2.1819,0 3.69464,0.450911 1.52733,0.450919 2.4728,1.28001 0.96003,0.829137 1.38185,2.007334 0.43637,1.163658 0.43637,2.603712 0,1.265465 -0.36365,2.210963 -0.34909,0.945468 -0.96002,1.62913 -0.59636,0.669108 -1.39638,1.134566 -0.80002,0.465464 -1.68733,0.770938 l 6.54562,7.898364 h -6.31287 l -6.05107,-7.360177 h -5.89106 z"
         style="font-style:normal;font-variant:normal;font-weight:bold;font-stretch:normal;font-size:medium;line-height:1.25;font-family:Syncopate;-inkscape-font-specification:'Syncopate Bold';letter-spacing:0px;word-spacing:0px;fill:#e42e1c;fill-opacity:1;stroke:none;stroke-width:0.744746"
         id="path879" />
      <path
         inkscape:connector-curvature="0"
         id="path877"
         d="m 250.8458,87.038542 v 11.258449 q 0,1.12002 0.1891,2.036409 0.18909,0.90183 0.69819,1.5564 0.50911,0.64 1.42549,1.00367 0.91638,0.3491 2.38552,0.3491 1.10548,0 2.31278,-0.30546 1.22185,-0.30547 2.41461,-0.81458 1.19276,-0.50909 2.26914,-1.16366 1.09094,-0.66911 1.94913,-1.381853 V 87.038542 h 5.38196 v 19.985928 h -5.38196 v -2.73461 q -1.0182,0.58184 -2.16732,1.17822 -1.14911,0.58183 -2.4437,1.06184 -1.29457,0.46545 -2.74916,0.75638 -1.45458,0.30546 -3.06917,0.30546 -2.02186,0 -3.6219,-0.49455 -1.60003,-0.48001 -2.70552,-1.36731 -1.10548,-0.90184 -1.70187,-2.16732 -0.58184,-1.28004 -0.58184,-2.851 V 87.038542 Z"
         style="font-style:normal;font-variant:normal;font-weight:bold;font-stretch:normal;font-size:medium;line-height:1.25;font-family:Syncopate;-inkscape-font-specification:'Syncopate Bold';letter-spacing:0px;word-spacing:0px;fill:#ffb600;fill-opacity:1;stroke:none;stroke-width:0.744746" />
      <path
         inkscape:connector-curvature="0"
         d="m 225.27425,99.344267 h 7.302 l -3.63644,-7.360174 z m 9.2075,3.898303 h -11.1421 l -1.87641,3.7819 h -6.02196 l 10.45844,-19.985928 h 6.02196 l 10.45846,19.985928 h -6.02198 z"
         style="font-style:normal;font-variant:normal;font-weight:bold;font-stretch:normal;font-size:medium;line-height:1.25;font-family:Syncopate;-inkscape-font-specification:'Syncopate Bold';letter-spacing:0px;word-spacing:0px;fill:#25bf86;fill-opacity:1;stroke:none;stroke-width:0.744746"
         id="path895-5-3" />
      <g
         aria-label="Automated Radio"
         style="font-style:normal;font-variant:normal;font-weight:normal;font-stretch:normal;font-size:7.92967px;line-height:1.25;font-family:Syncopate;-inkscape-font-specification:Syncopate;letter-spacing:0px;word-spacing:0px;fill:#000000;fill-opacity:1;stroke:none;stroke-width:0.198242"
         id="text1145">
        <path
           inkscape:connector-curvature="0"
           d="m 219.86308,116.41954 h -2.63894 l -0.44442,0.89572 h -1.42627 l 2.47702,-4.73356 h 1.42627 l 2.47703,4.73356 h -1.42627 z m -2.18074,-0.92329 h 1.72943 l -0.86127,-1.74322 z"
           style="font-style:normal;font-variant:normal;font-weight:bold;font-stretch:normal;font-size:7.05556px;font-family:Syncopate;-inkscape-font-specification:'Syncopate Bold';letter-spacing:1.16545px;stroke-width:0.198242"
           id="path4742" />
        <path
           inkscape:connector-curvature="0"
           d="m 224.89737,112.5817 v 2.6665 q 0,0.26528 0.0448,0.48232 0.0448,0.21359 0.16536,0.36862 0.12058,0.15159 0.33762,0.23771 0.21705,0.0827 0.565,0.0827 0.26183,0 0.54777,-0.0724 0.28939,-0.0724 0.57189,-0.19293 0.28249,-0.12057 0.53743,-0.2756 0.25838,-0.15848 0.46164,-0.32729 v -2.96967 h 1.27469 v 4.73356 h -1.27469 v -0.64768 q -0.24115,0.13781 -0.51332,0.27906 -0.27216,0.1378 -0.57877,0.25149 -0.30662,0.11024 -0.65112,0.17914 -0.34451,0.0724 -0.72692,0.0724 -0.47887,0 -0.85783,-0.11713 -0.37896,-0.11369 -0.64079,-0.32384 -0.26182,-0.2136 -0.40307,-0.51332 -0.13781,-0.30317 -0.13781,-0.67524 v -3.23839 z"
           style="font-style:normal;font-variant:normal;font-weight:bold;font-stretch:normal;font-size:7.05556px;font-family:Syncopate;-inkscape-font-specification:'Syncopate Bold';letter-spacing:1.16545px;stroke-width:0.198242"
           id="path4744" />
        <path
           inkscape:connector-curvature="0"
           d="m 234.70312,113.61178 v 3.70348 h -1.27813 v -3.70348 h -2.00849 v -1.03008 h 5.29856 v 1.03008 z"
           style="font-style:normal;font-variant:normal;font-weight:bold;font-stretch:normal;font-size:7.05556px;font-family:Syncopate;-inkscape-font-specification:'Syncopate Bold';letter-spacing:1.16545px;stroke-width:0.198242"
           id="path4746" />
        <path
           inkscape:connector-curvature="0"
           d="m 244.84994,114.95193 q 0,0.60978 -0.22393,1.07831 -0.22394,0.46509 -0.64079,0.77859 -0.41686,0.31351 -1.01286,0.47543 -0.59256,0.15847 -1.33325,0.15847 -0.7407,0 -1.34014,-0.15847 -0.59601,-0.16192 -1.01631,-0.47543 -0.4203,-0.3135 -0.64768,-0.77859 -0.22737,-0.46853 -0.22737,-1.07831 0,-0.60979 0.22737,-1.07487 0.22738,-0.46854 0.64768,-0.78204 0.4203,-0.3135 1.01631,-0.47198 0.59944,-0.16192 1.34014,-0.16192 0.74069,0 1.33325,0.16192 0.596,0.15848 1.01286,0.47198 0.41685,0.3135 0.64079,0.78204 0.22393,0.46508 0.22393,1.07487 z m -1.29191,0 q 0,-0.26528 -0.0861,-0.5271 -0.0827,-0.26528 -0.29972,-0.47543 -0.2136,-0.21015 -0.58567,-0.34106 -0.37207,-0.13091 -0.9474,-0.13091 -0.38585,0 -0.67869,0.062 -0.29283,0.0586 -0.50642,0.16536 -0.2136,0.1068 -0.35829,0.25149 -0.1447,0.14125 -0.23083,0.30662 -0.0861,0.16192 -0.12402,0.34106 -0.0344,0.1757 -0.0344,0.34796 0,0.1757 0.0344,0.35484 0.0379,0.17915 0.12402,0.34451 0.0861,0.16192 0.23083,0.30317 0.14469,0.14125 0.35829,0.24805 0.21359,0.10335 0.50642,0.16536 0.29284,0.0586 0.67869,0.0586 0.57533,0 0.9474,-0.13092 0.37207,-0.13091 0.58567,-0.34106 0.21704,-0.21015 0.29972,-0.47198 0.0861,-0.26527 0.0861,-0.53054 z"
           style="font-style:normal;font-variant:normal;font-weight:bold;font-stretch:normal;font-size:7.05556px;font-family:Syncopate;-inkscape-font-specification:'Syncopate Bold';letter-spacing:1.16545px;stroke-width:0.198242"
           id="path4748" />
        <path
           inkscape:connector-curvature="0"
           d="m 248.45796,112.5817 v 0.52021 q 0.16881,-0.1068 0.36518,-0.22049 0.19982,-0.11368 0.43064,-0.2067 0.23426,-0.093 0.49954,-0.15159 0.26871,-0.062 0.57877,-0.062 0.30317,0 0.53055,0.0655 0.22737,0.062 0.39274,0.16536 0.16881,0.0999 0.28594,0.22738 0.11713,0.12402 0.20326,0.24805 0.2446,-0.15848 0.48231,-0.28939 0.23772,-0.13091 0.47887,-0.22393 0.24116,-0.093 0.49265,-0.14125 0.25149,-0.0517 0.52366,-0.0517 0.43408,0 0.77514,0.12058 0.34451,0.12058 0.58222,0.33073 0.23772,0.21015 0.36174,0.49609 0.12747,0.2825 0.12747,0.60634 v 3.3004 h -1.27813 v -3.11781 q 0,-0.18948 -0.0586,-0.32728 -0.0586,-0.13781 -0.15847,-0.22393 -0.0965,-0.0861 -0.23083,-0.12747 -0.13091,-0.0413 -0.27905,-0.0413 -0.68902,0 -1.57096,0.62011 0.0103,0.0586 0.0138,0.13781 0.007,0.0792 0.007,0.15847 v 2.92144 h -1.27813 v -3.14537 q 0,-0.18948 -0.0586,-0.32039 -0.0586,-0.13436 -0.16192,-0.21705 -0.0999,-0.0827 -0.23426,-0.11713 -0.13092,-0.0379 -0.27906,-0.0379 -0.17914,0 -0.37896,0.0517 -0.19637,0.0517 -0.39963,0.1447 -0.19981,0.093 -0.39618,0.22048 -0.19293,0.12747 -0.36863,0.27561 v 3.14537 h -1.27813 v -4.73356 z"
           style="font-style:normal;font-variant:normal;font-weight:bold;font-stretch:normal;font-size:7.05556px;font-family:Syncopate;-inkscape-font-specification:'Syncopate Bold';letter-spacing:1.16545px;stroke-width:0.198242"
           id="path4750" />
        <path
           inkscape:connector-curvature="0"
           d="m 262.20834,117.31526 v -0.46509 q -0.2446,0.13436 -0.52709,0.23772 -0.27906,0.10335 -0.58223,0.1757 -0.30316,0.0723 -0.627,0.10679 -0.3204,0.0379 -0.64768,0.0379 -0.38241,0 -0.7407,-0.0724 -0.35484,-0.0723 -0.63045,-0.23426 -0.27561,-0.16192 -0.44442,-0.42375 -0.16536,-0.26183 -0.16536,-0.64079 0,-0.47887 0.26183,-0.79582 0.26182,-0.32039 0.79926,-0.52365 0.53743,-0.20326 1.35737,-0.3135 0.82337,-0.11025 1.94647,-0.17226 v -0.0999 q 0,-0.11713 -0.062,-0.23082 -0.062,-0.11713 -0.22737,-0.20326 -0.16192,-0.0896 -0.44787,-0.14469 -0.28249,-0.0551 -0.72347,-0.0551 -0.34795,0 -0.68901,0.0379 -0.33762,0.0345 -0.65457,0.0965 -0.31351,0.062 -0.596,0.1447 -0.2825,0.0827 -0.51332,0.17225 v -1.13688 q 0.24115,-0.062 0.54088,-0.12058 0.29972,-0.0586 0.62356,-0.0999 0.32384,-0.0448 0.65457,-0.0689 0.33073,-0.0276 0.63389,-0.0276 0.59601,0 1.09899,0.0999 0.50298,0.0965 0.86472,0.30317 0.36518,0.20671 0.56844,0.52365 0.20671,0.31695 0.20671,0.75448 v 3.13848 z m 0,-2.16007 q -0.73725,0.0276 -1.25401,0.0792 -0.51332,0.0517 -0.85438,0.12058 -0.34107,0.0689 -0.53744,0.14814 -0.19292,0.0792 -0.28939,0.16192 -0.0965,0.0827 -0.12057,0.16537 -0.0207,0.0827 -0.0207,0.15158 0,0.0827 0.0448,0.16192 0.0448,0.0758 0.15503,0.13436 0.11369,0.0586 0.29972,0.093 0.18604,0.0345 0.46854,0.0345 0.3135,0 0.61322,-0.0482 0.29973,-0.0482 0.56844,-0.13092 0.26872,-0.0861 0.50299,-0.19981 0.23771,-0.11714 0.42374,-0.24805 z"
           style="font-style:normal;font-variant:normal;font-weight:bold;font-stretch:normal;font-size:7.05556px;font-family:Syncopate;-inkscape-font-specification:'Syncopate Bold';letter-spacing:1.16545px;stroke-width:0.198242"
           id="path4752" />
        <path
           inkscape:connector-curvature="0"
           d="m 268.73092,113.61178 v 3.70348 h -1.27813 v -3.70348 h -2.00849 v -1.03008 h 5.29855 v 1.03008 z"
           style="font-style:normal;font-variant:normal;font-weight:bold;font-stretch:normal;font-size:7.05556px;font-family:Syncopate;-inkscape-font-specification:'Syncopate Bold';letter-spacing:1.16545px;stroke-width:0.198242"
           id="path4754" />
        <path
           inkscape:connector-curvature="0"
           d="m 278.03024,117.081 q -0.58222,0.19292 -1.16444,0.2756 -0.57878,0.0861 -1.18512,0.0861 -0.77514,0 -1.38148,-0.16536 -0.60289,-0.16881 -1.0163,-0.48576 -0.41341,-0.31695 -0.63045,-0.77515 -0.21705,-0.4582 -0.21705,-1.03697 0,-0.53744 0.21705,-0.99564 0.22048,-0.46164 0.62011,-0.79926 0.40308,-0.34106 0.97152,-0.53054 0.56844,-0.19293 1.26779,-0.19293 0.64424,0 1.17823,0.1757 0.53743,0.17226 0.91984,0.51332 0.38585,0.34107 0.596,0.8406 0.2136,0.49954 0.2136,1.15067 v 0.31695 h -4.66466 q 0.062,0.22393 0.20326,0.40996 0.14469,0.18604 0.38929,0.31695 0.2446,0.13091 0.59945,0.20326 0.35829,0.0724 0.85438,0.0724 0.3514,0 0.68902,-0.0413 0.33762,-0.0448 0.63045,-0.11369 0.29284,-0.0724 0.5271,-0.15848 0.23772,-0.0861 0.38241,-0.17225 z m -0.88195,-2.55971 q -0.0172,-0.1757 -0.10679,-0.36174 -0.0861,-0.18948 -0.27561,-0.34106 -0.18948,-0.15158 -0.49609,-0.24805 -0.30662,-0.0999 -0.76482,-0.0999 -0.43063,0 -0.74414,0.10679 -0.3135,0.1068 -0.5271,0.26528 -0.21015,0.15847 -0.32728,0.34106 -0.11713,0.18259 -0.15158,0.33762 z"
           style="font-style:normal;font-variant:normal;font-weight:bold;font-stretch:normal;font-size:7.05556px;font-family:Syncopate;-inkscape-font-specification:'Syncopate Bold';letter-spacing:1.16545px;stroke-width:0.198242"
           id="path4756" />
        <path
           inkscape:connector-curvature="0"
           d="m 286.54408,114.94504 q 0,0.45475 -0.0999,0.80959 -0.0999,0.3514 -0.2825,0.61323 -0.17914,0.26183 -0.43408,0.44442 -0.25149,0.18259 -0.56155,0.29283 -0.31006,0.11024 -0.66835,0.16192 -0.35829,0.0482 -0.74758,0.0482 h -3.00413 v -4.73356 h 2.99724 q 0.38929,0 0.74758,0.0517 0.35829,0.0482 0.66835,0.15847 0.3135,0.11024 0.56844,0.29283 0.25494,0.17915 0.43408,0.44442 0.18259,0.26183 0.2825,0.61323 0.0999,0.3514 0.0999,0.80271 z m -1.28847,0 q 0,-0.34107 -0.0896,-0.59256 -0.0861,-0.25149 -0.2825,-0.41341 -0.19292,-0.16537 -0.50643,-0.2446 -0.3135,-0.0827 -0.76481,-0.0827 h -1.58819 v 2.6734 h 1.58819 q 0.45131,0 0.76481,-0.0792 0.31351,-0.0827 0.50643,-0.24805 0.19637,-0.16881 0.2825,-0.4203 0.0896,-0.25149 0.0896,-0.59255 z"
           style="font-style:normal;font-variant:normal;font-weight:bold;font-stretch:normal;font-size:7.05556px;font-family:Syncopate;-inkscape-font-specification:'Syncopate Bold';letter-spacing:1.16545px;stroke-width:0.198242"
           id="path4758" />
        <path
           inkscape:connector-curvature="0"
           d="m 293.97027,117.31526 h -1.27813 v -4.73356 h 3.20394 q 0.51677,0 0.87505,0.1068 0.36174,0.1068 0.58567,0.30317 0.22738,0.19637 0.32729,0.47542 0.10335,0.27561 0.10335,0.61667 0,0.29973 -0.0861,0.52366 -0.0827,0.22393 -0.22738,0.38585 -0.14124,0.15847 -0.33072,0.26871 -0.18948,0.11025 -0.39964,0.1826 l 1.5503,1.87068 h -1.49517 l -1.43316,-1.74322 h -1.39527 z m 2.52526,-3.23839 q 0,-0.1378 -0.0379,-0.23426 -0.0344,-0.0965 -0.12402,-0.15503 -0.0896,-0.062 -0.24116,-0.0896 -0.14814,-0.0276 -0.37207,-0.0276 h -1.75011 v 1.01286 h 1.75011 q 0.22393,0 0.37207,-0.0276 0.15159,-0.0276 0.24116,-0.0861 0.0896,-0.062 0.12402,-0.15847 0.0379,-0.0965 0.0379,-0.23427 z"
           style="font-style:normal;font-variant:normal;font-weight:bold;font-stretch:normal;font-size:7.05556px;font-family:Syncopate;-inkscape-font-specification:'Syncopate Bold';letter-spacing:1.16545px;stroke-width:0.198242"
           id="path4760" />
        <path
           inkscape:connector-curvature="0"
           d="m 304.38925,117.31526 v -0.46509 q -0.2446,0.13436 -0.5271,0.23772 -0.27905,0.10335 -0.58222,0.1757 -0.30317,0.0723 -0.62701,0.10679 -0.32039,0.0379 -0.64768,0.0379 -0.3824,0 -0.74069,-0.0724 -0.35485,-0.0723 -0.63045,-0.23426 -0.27561,-0.16192 -0.44442,-0.42375 -0.16537,-0.26183 -0.16537,-0.64079 0,-0.47887 0.26183,-0.79582 0.26183,-0.32039 0.79926,-0.52365 0.53744,-0.20326 1.35737,-0.3135 0.82338,-0.11025 1.94648,-0.17226 v -0.0999 q 0,-0.11713 -0.062,-0.23082 -0.062,-0.11713 -0.22738,-0.20326 -0.16192,-0.0896 -0.44786,-0.14469 -0.2825,-0.0551 -0.72347,-0.0551 -0.34796,0 -0.68902,0.0379 -0.33762,0.0345 -0.65457,0.0965 -0.3135,0.062 -0.596,0.1447 -0.2825,0.0827 -0.51332,0.17225 v -1.13688 q 0.24116,-0.062 0.54088,-0.12058 0.29972,-0.0586 0.62356,-0.0999 0.32384,-0.0448 0.65457,-0.0689 0.33073,-0.0276 0.6339,-0.0276 0.596,0 1.09898,0.0999 0.50299,0.0965 0.86472,0.30317 0.36518,0.20671 0.56844,0.52365 0.20671,0.31695 0.20671,0.75448 v 3.13848 z m 0,-2.16007 q -0.73725,0.0276 -1.25402,0.0792 -0.51331,0.0517 -0.85438,0.12058 -0.34106,0.0689 -0.53743,0.14814 -0.19293,0.0792 -0.28939,0.16192 -0.0965,0.0827 -0.12058,0.16537 -0.0207,0.0827 -0.0207,0.15158 0,0.0827 0.0448,0.16192 0.0448,0.0758 0.15502,0.13436 0.11369,0.0586 0.29973,0.093 0.18603,0.0345 0.46853,0.0345 0.3135,0 0.61323,-0.0482 0.29972,-0.0482 0.56844,-0.13092 0.26872,-0.0861 0.50298,-0.19981 0.23771,-0.11714 0.42375,-0.24805 z"
           style="font-style:normal;font-variant:normal;font-weight:bold;font-stretch:normal;font-size:7.05556px;font-family:Syncopate;-inkscape-font-specification:'Syncopate Bold';letter-spacing:1.16545px;stroke-width:0.198242"
           id="path4762" />
        <path
           inkscape:connector-curvature="0"
           d="m 314.09165,114.94504 q 0,0.45475 -0.0999,0.80959 -0.0999,0.3514 -0.2825,0.61323 -0.17914,0.26183 -0.43408,0.44442 -0.25149,0.18259 -0.56155,0.29283 -0.31006,0.11024 -0.66835,0.16192 -0.35829,0.0482 -0.74758,0.0482 h -3.00413 v -4.73356 h 2.99723 q 0.3893,0 0.74759,0.0517 0.35829,0.0482 0.66835,0.15847 0.3135,0.11024 0.56844,0.29283 0.25494,0.17915 0.43408,0.44442 0.18259,0.26183 0.2825,0.61323 0.0999,0.3514 0.0999,0.80271 z m -1.28847,0 q 0,-0.34107 -0.0896,-0.59256 -0.0861,-0.25149 -0.2825,-0.41341 -0.19292,-0.16537 -0.50643,-0.2446 -0.3135,-0.0827 -0.76481,-0.0827 h -1.58819 v 2.6734 h 1.58819 q 0.45131,0 0.76481,-0.0792 0.31351,-0.0827 0.50643,-0.24805 0.19637,-0.16881 0.2825,-0.4203 0.0896,-0.25149 0.0896,-0.59255 z"
           style="font-style:normal;font-variant:normal;font-weight:bold;font-stretch:normal;font-size:7.05556px;font-family:Syncopate;-inkscape-font-specification:'Syncopate Bold';letter-spacing:1.16545px;stroke-width:0.198242"
           id="path4764" />
        <path
           inkscape:connector-curvature="0"
           d="m 316.42154,117.31526 v -4.73356 h 1.27813 v 4.73356 z"
           style="font-style:normal;font-variant:normal;font-weight:bold;font-stretch:normal;font-size:7.05556px;font-family:Syncopate;-inkscape-font-specification:'Syncopate Bold';letter-spacing:1.16545px;stroke-width:0.198242"
           id="path4766" />
        <path
           inkscape:connector-curvature="0"
           d="m 326.47189,114.95193 q 0,0.60978 -0.22393,1.07831 -0.22394,0.46509 -0.64079,0.77859 -0.41686,0.31351 -1.01286,0.47543 -0.59256,0.15847 -1.33325,0.15847 -0.7407,0 -1.34014,-0.15847 -0.59601,-0.16192 -1.01631,-0.47543 -0.4203,-0.3135 -0.64767,-0.77859 -0.22738,-0.46853 -0.22738,-1.07831 0,-0.60979 0.22738,-1.07487 0.22737,-0.46854 0.64767,-0.78204 0.4203,-0.3135 1.01631,-0.47198 0.59944,-0.16192 1.34014,-0.16192 0.74069,0 1.33325,0.16192 0.596,0.15848 1.01286,0.47198 0.41685,0.3135 0.64079,0.78204 0.22393,0.46508 0.22393,1.07487 z m -1.29191,0 q 0,-0.26528 -0.0861,-0.5271 -0.0827,-0.26528 -0.29972,-0.47543 -0.2136,-0.21015 -0.58567,-0.34106 -0.37207,-0.13091 -0.9474,-0.13091 -0.38585,0 -0.67869,0.062 -0.29283,0.0586 -0.50642,0.16536 -0.2136,0.1068 -0.35829,0.25149 -0.1447,0.14125 -0.23083,0.30662 -0.0861,0.16192 -0.12402,0.34106 -0.0345,0.1757 -0.0345,0.34796 0,0.1757 0.0345,0.35484 0.0379,0.17915 0.12402,0.34451 0.0861,0.16192 0.23083,0.30317 0.14469,0.14125 0.35829,0.24805 0.21359,0.10335 0.50642,0.16536 0.29284,0.0586 0.67869,0.0586 0.57533,0 0.9474,-0.13092 0.37207,-0.13091 0.58567,-0.34106 0.21704,-0.21015 0.29972,-0.47198 0.0861,-0.26527 0.0861,-0.53054 z"
           style="font-style:normal;font-variant:normal;font-weight:bold;font-stretch:normal;font-size:7.05556px;font-family:Syncopate;-inkscape-font-specification:'Syncopate Bold';letter-spacing:1.16545px;stroke-width:0.198242"
           id="path4768" />
        <text
           xml:space="preserve"
           style="font-style:normal;font-weight:normal;font-size:10.5833px;line-height:1.25;font-family:sans-serif;letter-spacing:0px;word-spacing:0px;fill:#000000;fill-opacity:1;stroke:none;stroke-width:0.0524514"
           x="377.28281"
           y="111.37891"
           id="text1634"><tspan
             sodipodi:role="line"
             x="377.28281"
             y="111.37891"
             style="stroke-width:0.0524514"
             id="tspan1636">Font: Syncopate</tspan></text>
      </g>
    </g>
    <g
       id="g11481"
       transform="translate(-0.17063465)">
      <path
         d="M 266.88373,118.39552 V 116.969 q -0.75024,0.41211 -1.61672,0.7291 -0.85591,0.31701 -1.78578,0.53892 -0.92987,0.2219 -1.92316,0.32756 -0.98272,0.11622 -1.98656,0.11622 -1.17293,0 -2.27186,-0.22192 -1.08839,-0.2219 -1.93373,-0.71855 -0.84534,-0.49664 -1.3631,-1.29971 -0.50722,-0.80307 -0.50722,-1.96542 0,-1.46877 0.80308,-2.44093 0.80308,-0.9827 2.4515,-1.60616 1.6484,-0.62342 4.16332,-0.96157 2.52546,-0.33814 5.97023,-0.52833 v -0.30643 q 0,-0.35929 -0.1902,-0.708 -0.19021,-0.35927 -0.69742,-0.62344 -0.49663,-0.27473 -1.37366,-0.4438 -0.86648,-0.16901 -2.21903,-0.16901 -1.06725,0 -2.11337,0.11621 -1.03554,0.1056 -2.00769,0.29586 -0.96157,0.1902 -1.82805,0.44378 -0.86649,0.25364 -1.57445,0.52836 v -3.48706 q 0.73967,-0.19018 1.65899,-0.36983 0.9193,-0.17964 1.91258,-0.30642 0.99327,-0.1374 2.0077,-0.21134 1.01441,-0.0846 1.94429,-0.0846 1.82806,0 3.37081,0.30644 1.54274,0.29587 2.65225,0.92988 1.12009,0.634 1.74353,1.60616 0.63401,0.97214 0.63401,2.31413 v 9.62634 z m 0,-6.62539 q -2.26128,0.0846 -3.8463,0.24304 -1.57445,0.1586 -2.62057,0.36984 -1.04611,0.21134 -1.64842,0.45436 -0.59174,0.24305 -0.88761,0.49664 -0.29588,0.25363 -0.36984,0.50721 -0.0634,0.25361 -0.0634,0.46495 0,0.25361 0.13739,0.49664 0.1374,0.23247 0.47552,0.41211 0.3487,0.17963 0.91929,0.2853 0.57061,0.10561 1.43709,0.10561 0.96159,0 1.88091,-0.14799 0.91929,-0.148 1.74351,-0.40155 0.8242,-0.26417 1.54273,-0.61289 0.72912,-0.35926 1.29973,-0.7608 z m -28.38242,6.62539 h -3.92028 v -14.51877 h 9.82712 q 1.58503,0 2.68397,0.32756 1.10953,0.32758 1.79636,0.92987 0.69741,0.60233 1.00384,1.45822 0.31701,0.84535 0.31701,1.89147 0,0.91929 -0.26418,1.60615 -0.25359,0.68684 -0.6974,1.18349 -0.43323,0.48607 -1.0144,0.82419 -0.58118,0.33815 -1.22576,0.56005 l 4.75505,5.73777 h -4.58597 l -4.3958,-5.3468 h -4.27956 z m 7.74548,-9.9328 q 0,-0.42266 -0.11621,-0.71853 -0.10562,-0.29586 -0.3804,-0.47551 -0.27474,-0.1902 -0.73969,-0.27474 -0.45437,-0.0846 -1.1412,-0.0846 h -5.36795 v 3.10665 h 5.36795 q 0.68683,0 1.1412,-0.0846 0.46495,-0.0846 0.73969,-0.26417 0.27472,-0.1902 0.3804,-0.48606 0.11621,-0.29588 0.11621,-0.71855 z m -30.04142,-4.58597 v 8.1787 q 0,0.81364 0.13737,1.47934 0.13736,0.65514 0.5072,1.13065 0.36984,0.46493 1.03555,0.72911 0.6657,0.25361 1.73296,0.25361 0.80308,0 1.68011,-0.2219 0.88762,-0.22191 1.7541,-0.59176 0.86648,-0.36983 1.64841,-0.84534 0.79252,-0.48606 1.41595,-1.00384 v -9.10857 h 3.90972 v 14.51877 h -3.90972 v -1.98657 q -0.73967,0.42269 -1.57445,0.85593 -0.83477,0.42266 -1.77523,0.77137 -0.94043,0.33813 -1.99712,0.54948 -1.05667,0.2219 -2.2296,0.2219 -1.46878,0 -2.63113,-0.35927 -1.16234,-0.34871 -1.96542,-0.99328 -0.80308,-0.65514 -1.23632,-1.57446 -0.42268,-0.92988 -0.42268,-2.0711 v -9.93277 z m -11.88765,11.77141 h -8.09417 l -1.36312,2.74736 h -4.37466 l 7.59754,-14.51877 h 4.37465 l 7.59754,14.51877 h -4.37467 z m -6.68879,-2.83192 h 5.30454 l -2.6417,-5.3468 z"
         style="font-style:normal;font-variant:normal;font-weight:bold;font-stretch:normal;font-size:medium;line-height:1.25;font-family:Syncopate;-inkscape-font-specification:'Syncopate Bold';letter-spacing:0px;word-spacing:0px;fill:#ffffff;fill-opacity:1;stroke:none;stroke-width:0.54102"
         id="path878"
         inkscape:connector-curvature="0" />
      <path
         d="m 172.52221,100.56045 c -5.66633,0 -10.2815,4.61518 -10.2815,10.2815 0,5.66633 4.61517,10.28194 10.2815,10.28194 5.66632,0 10.28195,-4.61561 10.28195,-10.28194 0,-5.66632 -4.61563,-10.2815 -10.28195,-10.2815 z m 0,2.051 c 4.55779,0 8.23095,3.67271 8.23095,8.2305 0,4.55779 -3.67316,8.23096 -8.23095,8.23096 -4.5578,0 -8.2305,-3.67317 -8.2305,-8.23096 0,-4.55779 3.6727,-8.2305 8.2305,-8.2305 z m 0,0.52729 c -4.24814,0 -7.70323,3.45506 -7.70323,7.70321 0,4.24814 3.45509,7.7037 7.70323,7.7037 4.24813,0 7.70368,-3.45556 7.70368,-7.7037 0,-4.24815 -3.45555,-7.70321 -7.70368,-7.70321 z m 0,1.08332 c 3.66252,0 6.62035,2.95734 6.62035,6.61989 0,3.66255 -2.95783,6.61989 -6.62035,6.61989 -3.66253,0 -6.61989,-2.95734 -6.61989,-6.61989 0,-3.66255 2.95736,-6.61989 6.61989,-6.61989 z"
         style="color:#000000;font-style:normal;font-variant:normal;font-weight:normal;font-stretch:normal;font-size:medium;line-height:normal;font-family:sans-serif;font-variant-ligatures:normal;font-variant-position:normal;font-variant-caps:normal;font-variant-numeric:normal;font-variant-alternates:normal;font-feature-settings:normal;text-indent:0;text-align:start;text-decoration:none;text-decoration-line:none;text-decoration-style:solid;text-decoration-color:#000000;letter-spacing:normal;word-spacing:normal;text-transform:none;writing-mode:lr-tb;direction:ltr;text-orientation:mixed;dominant-baseline:auto;baseline-shift:baseline;text-anchor:start;white-space:normal;shape-padding:0;clip-rule:nonzero;display:inline;overflow:visible;visibility:visible;isolation:auto;mix-blend-mode:normal;color-interpolation:sRGB;color-interpolation-filters:linearRGB;solid-color:#000000;solid-opacity:1;vector-effect:none;fill:#ffffff;fill-opacity:1;fill-rule:nonzero;stroke:none;stroke-width:2.05117;stroke-linecap:butt;stroke-linejoin:miter;stroke-miterlimit:4;stroke-dasharray:none;stroke-dashoffset:0;stroke-opacity:1;color-rendering:auto;image-rendering:auto;shape-rendering:auto;text-rendering:auto;enable-background:accumulate"
         id="path880"
         inkscape:connector-curvature="0" />
    </g>
  </g>
</svg>
